language	ID	basic	np	Dist_D	Dist_N	Dist_A
Afrikaans_2.8	1789056	SVO	DNA_	3	2	1
Afrikaans_2.8	2722100	SVO	NA_D	1	2	1
Afrikaans_2.8	7691131	SVO	NA_D	1	2	1
Afrikaans_2.8	8608227	SVO	DNA_	3	2	1
Afrikaans_2.8	8682145	SVO	A_ND	2	1	1
Afrikaans_2.8	9785640	SVO	A_ND	2	1	1
Afrikaans_2.8	3586106	SOV	A_DN	1	2	1
Afrikaans_2.8	6104696	SVO	A_ND	2	1	1
Afrikaans_2.8	772212	SVO	NA_D	1	2	1
Afrikaans_2.8	4279942	SVO	A_ND	2	1	1
Afrikaans_2.8	1581587	SVO	A_ND	2	1	1
Afrikaans_2.8	1713189	SOV	NAD_	1	3	2
Afrikaans_2.8	3305060	SVO	A_ND	2	1	1
Afrikaans_2.8	330736	SVO	A_ND	2	1	1
Afrikaans_2.8	350892	SVO	A_ND	2	1	1
Afrikaans_2.8	4183401	SVO	A_ND	2	1	1
Afrikaans_2.8	445551	SOV	DA_N	2	1	1
Afrikaans_2.8	5389469	SVO	AN_D	1	1	2
Afrikaans_2.8	675874	SVO	AN_D	1	1	2
Afrikaans_2.8	8817953	OSV	A_ND	2	1	1
Afrikaans_2.8	9083337	SVO	DAN_	3	1	2
Afrikaans_2.8	9092691	SOV	AN_D	1	1	2
Afrikaans_2.8	9541751	SOV	DA_N	2	1	1
Afrikaans_2.8	9843225	OSV	A_ND	2	1	1
Akkadian_2.8	4216657	SVO	AN_D	1	1	2
Akkadian_2.8	5336199	SOV	NDA_	2	3	1
Akkadian_2.8	7356971	SOV	AD_N	1	1	2
Akkadian_2.8	8304382	SVO	AN_D	1	1	2
Akkadian_2.8	9910638	SOV	DA_N	2	1	1
Akkadian_2.8	1224853	SVO	DNA_	3	2	1
Akkadian_2.8	1501031	OSV	A_ND	2	1	1
Akkadian_2.8	1841071	SVO	DNA_	3	2	1
Akkadian_2.8	2425600	OSV	DNA_	3	2	1
Akkadian_2.8	2765063	OSV	DNA_	3	2	1
Akkadian_2.8	356810	SVO	DNA_	3	2	1
Akkadian_2.8	4079063	SOV	DNA_	3	2	1
Akkadian_2.8	4688149	SVO	DNA_	3	2	1
Akkadian_2.8	5249423	SOV	DA_N	2	1	1
Akkadian_2.8	5506569	SVO	AND_	1	2	3
Akkadian_2.8	6440320	SOV	DNA_	3	2	1
Akkadian_2.8	6619426	SOV	DNA_	3	2	1
Akkadian_2.8	6803690	OSV	DNA_	3	2	1
Akkadian_2.8	8828041	OSV	DNA_	3	2	1
Akkadian_2.8	9523638	OSV	NDA_	2	3	1
Amharic_2.8	2126540	SOV	AD_N	1	1	2
Amharic_2.8	2892807	SOV	AD_N	1	1	2
Amharic_2.8	293396	SOV	AND_	1	2	3
Amharic_2.8	3294355	SOV	DA_N	2	1	1
Amharic_2.8	3295362	SVO	AN_D	1	1	2
Amharic_2.8	355135	SOV	AD_N	1	1	2
Amharic_2.8	3784582	SOV	NA_D	1	2	1
Amharic_2.8	4106730	SOV	NA_D	1	2	1
Amharic_2.8	4493277	SOV	NA_D	1	2	1
Amharic_2.8	6974911	SVO	AN_D	1	1	2
Amharic_2.8	7178369	SOV	DAN_	3	1	2
Amharic_2.8	7518803	SOV	NA_D	1	2	1
Amharic_2.8	7570837	SOV	AN_D	1	1	2
Amharic_2.8	8567282	SOV	NA_D	1	2	1
Amharic_2.8	8915474	SOV	NA_D	1	2	1
Amharic_2.8	9187104	SOV	DA_N	2	1	1
Amharic_2.8	9350922	SOV	NA_D	1	2	1
Ancient_Greek_2.8	2436928	SOV	A_DN	1	2	1
Ancient_Greek_2.8	5681787	SOV	NAD_	1	3	2
Ancient_Greek_2.8	577944	SOV	NAD_	1	3	2
Ancient_Greek_2.8	5830251	SOV	NAD_	1	3	2
Ancient_Greek_2.8	6248978	SOV	A_DN	1	2	1
Ancient_Greek_2.8	6494358	SVO	AN_D	1	1	2
Ancient_Greek_2.8	6525473	SVO	AN_D	1	1	2
Ancient_Greek_2.8	6881623	SOV	NAD_	1	3	2
Ancient_Greek_2.8	7909102	SOV	NAD_	1	3	2
Ancient_Greek_2.8	8896120	SVO	AN_D	1	1	2
Ancient_Greek_2.8	9132175	SVO	AN_D	1	1	2
Ancient_Greek_2.8	9281782	SOV	A_DN	1	2	1
Ancient_Greek_2.8	8399702	SVO	AD_N	1	1	2
Ancient_Greek_2.8	6644836	SOV	NAD_	1	3	2
Ancient_Greek_2.8	5407235	SVO	AD_N	1	1	2
Ancient_Greek_2.8	6356476	SVO	AN_D	1	1	2
Ancient_Greek_2.8	8828427	SVO	AD_N	1	1	2
Ancient_Greek_2.8	1529492	SVO	AD_N	1	1	2
Ancient_Greek_2.8	1804357	SVO	AD_N	1	1	2
Ancient_Greek_2.8	1889669	SOV	A_ND	2	1	1
Ancient_Greek_2.8	4453061	SVO	AN_D	1	1	2
Ancient_Greek_2.8	4598824	SVO	AD_N	1	1	2
Ancient_Greek_2.8	7575457	SVO	AD_N	1	1	2
Ancient_Greek_2.8	7689025	SOV	AD_N	1	1	2
Ancient_Greek_2.8	7956638	SVO	AD_N	1	1	2
Ancient_Greek_2.8	8257737	SVO	AN_D	1	1	2
Ancient_Greek_2.8	9559964	SVO	AD_N	1	1	2
Ancient_Greek_2.8	9693388	SVO	ADN_	2	1	3
Arabic_2.8	1020415	SOV	NA_D	1	2	1
Arabic_2.8	1213342	SOV	ADN_	2	1	3
Arabic_2.8	371580	SOV	DNA_	3	2	1
Arabic_2.8	4400468	SOV	DAN_	3	1	2
Arabic_2.8	4590384	SOV	DNA_	3	2	1
Arabic_2.8	8479422	SOV	NA_D	1	2	1
Arabic_2.8	9105625	SOV	DNA_	3	2	1
Arabic_2.8	9290466	SOV	A_ND	2	1	1
Arabic_2.8	9915380	SOV	DNA_	3	2	1
Arabic_2.8	1135478	SVO	A_DN	1	2	1
Arabic_2.8	2427205	SOV	DNA_	3	2	1
Arabic_2.8	6388407	SOV	NDA_	2	3	1
Arabic_2.8	9614956	SOV	DNA_	3	2	1
Arabic_2.8	5379194	SOV	ADN_	2	1	3
Arabic_2.8	3524388	SOV	DNA_	3	2	1
Arabic_2.8	252333	SOV	A_ND	2	1	1
Arabic_2.8	4069492	SOV	NDA_	2	3	1
Arabic_2.8	4324608	SOV	NDA_	2	3	1
Arabic_2.8	4749343	SOV	NAD_	1	3	2
Arabic_2.8	4840988	SOV	NDA_	2	3	1
Arabic_2.8	4927136	SOV	NDA_	2	3	1
Arabic_2.8	4962012	SOV	NDA_	2	3	1
Arabic_2.8	5425761	SOV	DAN_	3	1	2
Arabic_2.8	571691	SOV	DAN_	3	1	2
Arabic_2.8	6192891	SOV	DNA_	3	2	1
Arabic_2.8	6613909	SOV	NDA_	2	3	1
Arabic_2.8	6664749	SOV	NA_D	1	2	1
Arabic_2.8	6896147	SOV	DNA_	3	2	1
Arabic_2.8	703952	SOV	NDA_	2	3	1
Arabic_2.8	951143	SOV	NDA_	2	3	1
Armenian_2.8	1861153	SOV	DAN_	3	1	2
Armenian_2.8	2488533	SOV	DAN_	3	1	2
Armenian_2.8	2508151	SVO	DNA_	3	2	1
Armenian_2.8	456879	SOV	AN_D	1	1	2
Armenian_2.8	5323728	SOV	DAN_	3	1	2
Armenian_2.8	5527318	SOV	DNA_	3	2	1
Armenian_2.8	623319	SOV	ADN_	2	1	3
Armenian_2.8	8333325	SVO	NDA_	2	3	1
Armenian_2.8	8413026	SOV	DNA_	3	2	1
Armenian_2.8	8657446	SVO	NA_D	1	2	1
Armenian_2.8	8773855	OSV	DAN_	3	1	2
Armenian_2.8	9962375	SVO	DAN_	3	1	2
Armenian_2.8	9993170	SVO	DAN_	3	1	2
Armenian_2.8	8653587	OSV	A_ND	2	1	1
Armenian_2.8	257349	SOV	A_ND	2	1	1
Armenian_2.8	3613805	SOV	A_ND	2	1	1
Armenian_2.8	7266666	SOV	A_DN	1	2	1
Armenian_2.8	8183017	SVO	ADN_	2	1	3
Armenian_2.8	1746235	SOV	A_ND	2	1	1
Armenian_2.8	1786057	SVO	DA_N	2	1	1
Armenian_2.8	2548616	OSV	DNA_	3	2	1
Armenian_2.8	2580061	SOV	A_ND	2	1	1
Armenian_2.8	2756118	OSV	NA_D	1	2	1
Armenian_2.8	2782437	SOV	NA_D	1	2	1
Armenian_2.8	3124861	OSV	A_ND	2	1	1
Armenian_2.8	4676434	SOV	NDA_	2	3	1
Armenian_2.8	5201008	SOV	A_DN	1	2	1
Armenian_2.8	6229436	OSV	A_ND	2	1	1
Armenian_2.8	6503439	SOV	A_ND	2	1	1
Armenian_2.8	6852609	SVO	DA_N	2	1	1
Armenian_2.8	7350422	SVO	DNA_	3	2	1
Armenian_2.8	8928624	SVO	DA_N	2	1	1
Bambara_2.8	6070641	SVO	DAN_	3	1	2
Bambara_2.8	1693315	SOV	NDA_	2	3	1
Bambara_2.8	1937568	SOV	A_ND	2	1	1
Bambara_2.8	2310636	SOV	DAN_	3	1	2
Bambara_2.8	3479426	SOV	A_ND	2	1	1
Bambara_2.8	3519541	SOV	A_ND	2	1	1
Bambara_2.8	3900642	SVO	DNA_	3	2	1
Bambara_2.8	496724	SOV	A_DN	1	2	1
Bambara_2.8	6772117	SOV	NDA_	2	3	1
Bambara_2.8	7410564	SOV	A_ND	2	1	1
Bambara_2.8	7653752	SOV	A_ND	2	1	1
Bambara_2.8	910463	SOV	A_ND	2	1	1
Bambara_2.8	9285076	SOV	NA_D	1	2	1
Bambara_2.8	9332534	SVO	A_DN	1	2	1
Bambara_2.8	9709396	SOV	A_DN	1	2	1
Basque_2.8	3495472	SOV	NDA_	2	3	1
Basque_2.8	4801999	SOV	NDA_	2	3	1
Basque_2.8	7274567	SOV	NDA_	2	3	1
Basque_2.8	9370508	SOV	NDA_	2	3	1
Basque_2.8	4364940	SOV	DNA_	3	2	1
Basque_2.8	5334697	SOV	DNA_	3	2	1
Basque_2.8	6515194	SOV	DNA_	3	2	1
Basque_2.8	8714241	SOV	DNA_	3	2	1
Basque_2.8	2986672	SOV	NDA_	2	3	1
Basque_2.8	2124128	SOV	DNA_	3	2	1
Basque_2.8	8987114	SOV	DNA_	3	2	1
Basque_2.8	1387248	SOV	DNA_	3	2	1
Basque_2.8	169537	SOV	A_ND	2	1	1
Basque_2.8	2083187	SOV	DNA_	3	2	1
Basque_2.8	4483820	SVO	A_ND	2	1	1
Basque_2.8	4511002	SOV	DNA_	3	2	1
Basque_2.8	5250325	SOV	DNA_	3	2	1
Basque_2.8	6178704	SOV	DAN_	3	1	2
Basque_2.8	6259078	SOV	DNA_	3	2	1
Basque_2.8	7052915	SOV	NDA_	2	3	1
Basque_2.8	7725252	SOV	A_ND	2	1	1
Basque_2.8	8115018	SOV	DAN_	3	1	2
Basque_2.8	8607550	SOV	DNA_	3	2	1
Basque_2.8	9866001	SOV	NDA_	2	3	1
Belarusian_2.8	1225880	SVO	A_ND	2	1	1
Belarusian_2.8	498729	SVO	DA_N	2	1	1
Belarusian_2.8	8169896	SOV	NA_D	1	2	1
Belarusian_2.8	1813230	SVO	A_ND	2	1	1
Belarusian_2.8	2522814	SVO	A_DN	1	2	1
Belarusian_2.8	2602566	SVO	DA_N	2	1	1
Belarusian_2.8	3248184	SVO	DA_N	2	1	1
Belarusian_2.8	4355900	SVO	DA_N	2	1	1
Belarusian_2.8	4450849	SOV	A_ND	2	1	1
Belarusian_2.8	4715236	SVO	DA_N	2	1	1
Belarusian_2.8	4861379	SVO	DA_N	2	1	1
Belarusian_2.8	5063186	SVO	DA_N	2	1	1
Belarusian_2.8	5894202	SOV	A_ND	2	1	1
Belarusian_2.8	7917795	SVO	NA_D	1	2	1
Belarusian_2.8	8843707	SVO	NDA_	2	3	1
Belarusian_2.8	9857819	SVO	DA_N	2	1	1
Breton_2.8	1817533	OSV	A_ND	2	1	1
Breton_2.8	2364945	SOV	ADN_	2	1	3
Breton_2.8	2682439	SOV	ADN_	2	1	3
Breton_2.8	3784906	OSV	ADN_	2	1	3
Breton_2.8	404367	SOV	DAN_	3	1	2
Breton_2.8	5132158	OSV	ADN_	2	1	3
Breton_2.8	8019042	SVO	A_ND	2	1	1
Breton_2.8	1166204	SVO	DA_N	2	1	1
Breton_2.8	1609231	SOV	ADN_	2	1	3
Breton_2.8	2313359	OSV	A_ND	2	1	1
Breton_2.8	2846534	OSV	AN_D	1	1	2
Breton_2.8	4358370	SOV	A_ND	2	1	1
Breton_2.8	5694890	OSV	AN_D	1	1	2
Breton_2.8	6099633	SOV	ADN_	2	1	3
Breton_2.8	6653339	SOV	DAN_	3	1	2
Breton_2.8	6847734	OSV	A_ND	2	1	1
Breton_2.8	725082	SOV	ADN_	2	1	3
Breton_2.8	7340055	OSV	A_ND	2	1	1
Breton_2.8	8441442	SOV	ADN_	2	1	3
Breton_2.8	8994011	SOV	ADN_	2	1	3
Breton_2.8	9422053	SOV	DAN_	3	1	2
Breton_2.8	9875896	OSV	A_ND	2	1	1
Bulgarian_2.8	1352953	SOV	NDA_	2	3	1
Bulgarian_2.8	3342662	OSV	NDA_	2	3	1
Bulgarian_2.8	4036181	SOV	NDA_	2	3	1
Bulgarian_2.8	6931870	SOV	NAD_	1	3	2
Bulgarian_2.8	7078983	OSV	NDA_	2	3	1
Bulgarian_2.8	8222155	SOV	NDA_	2	3	1
Bulgarian_2.8	9152840	SOV	NDA_	2	3	1
Bulgarian_2.8	938340	SOV	NAD_	1	3	2
Bulgarian_2.8	9604695	SOV	NDA_	2	3	1
Bulgarian_2.8	4021985	SOV	NA_D	1	2	1
Bulgarian_2.8	374597	SOV	NDA_	2	3	1
Bulgarian_2.8	2537901	SOV	AN_D	1	1	2
Bulgarian_2.8	1081214	SOV	DA_N	2	1	1
Bulgarian_2.8	1516573	SOV	NA_D	1	2	1
Bulgarian_2.8	1818556	SOV	DA_N	2	1	1
Bulgarian_2.8	2911914	SOV	NA_D	1	2	1
Bulgarian_2.8	3396228	SVO	NA_D	1	2	1
Bulgarian_2.8	4140888	SOV	AN_D	1	1	2
Bulgarian_2.8	5032812	SOV	AD_N	1	1	2
Bulgarian_2.8	5262974	SVO	AN_D	1	1	2
Bulgarian_2.8	6025447	SOV	DA_N	2	1	1
Bulgarian_2.8	669866	SOV	DA_N	2	1	1
Bulgarian_2.8	6707559	SOV	AN_D	1	1	2
Bulgarian_2.8	8937703	SOV	DA_N	2	1	1
Bulgarian_2.8	9312164	SOV	AN_D	1	1	2
Bulgarian_2.8	9382053	SOV	NA_D	1	2	1
Buryat_2.8	1309749	SOV	DA_N	2	1	1
Buryat_2.8	4107770	SOV	NDA_	2	3	1
Buryat_2.8	5402396	SOV	DAN_	3	1	2
Buryat_2.8	2146671	SOV	NDA_	2	3	1
Buryat_2.8	4890962	SOV	NDA_	2	3	1
Buryat_2.8	1324877	SVO	NAD_	1	3	2
Buryat_2.8	2811522	SOV	DNA_	3	2	1
Buryat_2.8	2998676	SOV	NDA_	2	3	1
Buryat_2.8	3045690	SVO	NAD_	1	3	2
Buryat_2.8	3718572	SOV	DA_N	2	1	1
Buryat_2.8	5266532	SOV	A_DN	1	2	1
Buryat_2.8	624829	SVO	NDA_	2	3	1
Buryat_2.8	64624	SOV	DNA_	3	2	1
Buryat_2.8	6550325	SOV	AN_D	1	1	2
Buryat_2.8	7931757	SOV	DNA_	3	2	1
Buryat_2.8	83210	SOV	A_DN	1	2	1
Buryat_2.8	8726543	SVO	NDA_	2	3	1
Buryat_2.8	8975596	SOV	A_DN	1	2	1
Cantonese_2.8	3827064	SOV	DNA_	3	2	1
Cantonese_2.8	5629967	SOV	NA_D	1	2	1
Cantonese_2.8	6153523	SOV	ADN_	2	1	3
Cantonese_2.8	3528255	SOV	ADN_	2	1	3
Cantonese_2.8	3931732	SOV	DNA_	3	2	1
Cantonese_2.8	3964288	SVO	ADN_	2	1	3
Cantonese_2.8	4719632	SVO	DNA_	3	2	1
Cantonese_2.8	6416402	SOV	NDA_	2	3	1
Cantonese_2.8	768644	SOV	DNA_	3	2	1
Cantonese_2.8	7841013	SOV	DNA_	3	2	1
Cantonese_2.8	8046057	SOV	NA_D	1	2	1
Cantonese_2.8	9037550	SOV	ADN_	2	1	3
Cantonese_2.8	930877	SOV	ADN_	2	1	3
Cantonese_2.8	9596656	SOV	NA_D	1	2	1
Catalan_2.8	1747154	SOV	A_DN	1	2	1
Catalan_2.8	1880958	SOV	NA_D	1	2	1
Catalan_2.8	2088999	SOV	A_ND	2	1	1
Catalan_2.8	2731079	SOV	A_DN	1	2	1
Catalan_2.8	4134203	SOV	A_DN	1	2	1
Catalan_2.8	5551909	SOV	A_DN	1	2	1
Catalan_2.8	649057	SOV	A_DN	1	2	1
Catalan_2.8	6720536	SOV	A_DN	1	2	1
Catalan_2.8	9972946	SOV	A_DN	1	2	1
Catalan_2.8	7879741	SOV	NA_D	1	2	1
Catalan_2.8	2452837	SOV	A_DN	1	2	1
Catalan_2.8	7292226	SOV	A_DN	1	2	1
Catalan_2.8	3262865	SOV	A_DN	1	2	1
Catalan_2.8	1651985	SOV	A_DN	1	2	1
Catalan_2.8	190872	SOV	NA_D	1	2	1
Catalan_2.8	3035663	OSV	A_DN	1	2	1
Catalan_2.8	3945042	SOV	A_DN	1	2	1
Catalan_2.8	4055346	SOV	NA_D	1	2	1
Catalan_2.8	5340684	SOV	A_DN	1	2	1
Catalan_2.8	5514182	SOV	A_DN	1	2	1
Catalan_2.8	5840930	SOV	A_DN	1	2	1
Catalan_2.8	7003377	SOV	NA_D	1	2	1
Catalan_2.8	7349434	SOV	A_DN	1	2	1
Catalan_2.8	7444105	SOV	A_DN	1	2	1
Catalan_2.8	870137	SOV	NA_D	1	2	1
Catalan_2.8	8953420	OSV	A_DN	1	2	1
Catalan_2.8	9287108	OSV	A_DN	1	2	1
Chinese_2.8	1706793	SOV	DNA_	3	2	1
Chinese_2.8	2679406	SOV	A_ND	2	1	1
Chinese_2.8	4681501	SOV	DA_N	2	1	1
Chinese_2.8	591796	SOV	A_ND	2	1	1
Chinese_2.8	6501796	SOV	A_ND	2	1	1
Chinese_2.8	6787793	SOV	A_ND	2	1	1
Chinese_2.8	6819361	SOV	A_ND	2	1	1
Chinese_2.8	9135485	SOV	DAN_	3	1	2
Chinese_2.8	6246569	SOV	A_ND	2	1	1
Chinese_2.8	2626086	SOV	DA_N	2	1	1
Chinese_2.8	1407160	SOV	ADN_	2	1	3
Chinese_2.8	2880492	SOV	NA_D	1	2	1
Chinese_2.8	3441347	SOV	A_ND	2	1	1
Chinese_2.8	542456	SOV	AN_D	1	1	2
Chinese_2.8	5733241	SOV	A_ND	2	1	1
Chinese_2.8	6031227	SOV	AN_D	1	1	2
Chinese_2.8	7665132	SOV	AN_D	1	1	2
Chinese_2.8	770672	SOV	AN_D	1	1	2
Chinese_2.8	8193467	SOV	DA_N	2	1	1
Chinese_2.8	9650796	SOV	DA_N	2	1	1
Chinese_2.8	9876771	SOV	AN_D	1	1	2
Chinese_2.8	9943591	SOV	AD_N	1	1	2
Classical_Chinese_2.8	1077938	SOV	A_ND	2	1	1
Classical_Chinese_2.8	3141277	SOV	A_ND	2	1	1
Classical_Chinese_2.8	3616117	SOV	A_ND	2	1	1
Classical_Chinese_2.8	3648744	SOV	A_ND	2	1	1
Classical_Chinese_2.8	5265677	SOV	DAN_	3	1	2
Classical_Chinese_2.8	8934930	SOV	DAN_	3	1	2
Classical_Chinese_2.8	9223589	SOV	A_ND	2	1	1
Classical_Chinese_2.8	9816734	SOV	A_ND	2	1	1
Classical_Chinese_2.8	2107138	SOV	DAN_	3	1	2
Classical_Chinese_2.8	4550783	SOV	DA_N	2	1	1
Classical_Chinese_2.8	536310	SOV	AN_D	1	1	2
Classical_Chinese_2.8	754032	SOV	DAN_	3	1	2
Classical_Chinese_2.8	8873738	SOV	A_ND	2	1	1
Classical_Chinese_2.8	9608274	SOV	NA_D	1	2	1
Classical_Chinese_2.8	4959157	SOV	AN_D	1	1	2
Classical_Chinese_2.8	3009843	SOV	DAN_	3	1	2
Classical_Chinese_2.8	3176931	SOV	DAN_	3	1	2
Classical_Chinese_2.8	7423619	SOV	A_ND	2	1	1
Classical_Chinese_2.8	7428617	SOV	DA_N	2	1	1
Classical_Chinese_2.8	2003515	SOV	A_DN	1	2	1
Classical_Chinese_2.8	3199978	SOV	DA_N	2	1	1
Classical_Chinese_2.8	3241353	SOV	DA_N	2	1	1
Classical_Chinese_2.8	3259178	SOV	A_ND	2	1	1
Classical_Chinese_2.8	3530255	SOV	DA_N	2	1	1
Classical_Chinese_2.8	4882374	SOV	DNA_	3	2	1
Classical_Chinese_2.8	5545794	SOV	DNA_	3	2	1
Classical_Chinese_2.8	6100349	SOV	DNA_	3	2	1
Classical_Chinese_2.8	8033296	SOV	DNA_	3	2	1
Classical_Chinese_2.8	867817	SOV	A_DN	1	2	1
Classical_Chinese_2.8	934818	SOV	DA_N	2	1	1
Coptic_2.8	1164764	SOV	AN_D	1	1	2
Coptic_2.8	4935038	SOV	AN_D	1	1	2
Coptic_2.8	6875983	SVO	NA_D	1	2	1
Coptic_2.8	8597587	SVO	NA_D	1	2	1
Coptic_2.8	2348322	SVO	AD_N	1	1	2
Coptic_2.8	3105438	SVO	NAD_	1	3	2
Coptic_2.8	979962	SVO	AD_N	1	1	2
Coptic_2.8	727400	SVO	NA_D	1	2	1
Coptic_2.8	1638372	SOV	A_DN	1	2	1
Coptic_2.8	4164999	SVO	AD_N	1	1	2
Coptic_2.8	9736835	SOV	AD_N	1	1	2
Coptic_2.8	1036987	SVO	DA_N	2	1	1
Coptic_2.8	3221863	SOV	DA_N	2	1	1
Coptic_2.8	4306215	SVO	NDA_	2	3	1
Coptic_2.8	449868	SVO	DA_N	2	1	1
Coptic_2.8	4556810	OSV	ADN_	2	1	3
Coptic_2.8	4688057	SVO	NA_D	1	2	1
Coptic_2.8	5691035	SVO	DAN_	3	1	2
Coptic_2.8	703640	SVO	DNA_	3	2	1
Coptic_2.8	7453249	SVO	NA_D	1	2	1
Coptic_2.8	800580	SVO	NA_D	1	2	1
Coptic_2.8	9679747	SOV	NDA_	2	3	1
Coptic_2.8	9853971	SVO	DA_N	2	1	1
Croatian_2.8	209488	OSV	NAD_	1	3	2
Croatian_2.8	3858845	SOV	DNA_	3	2	1
Croatian_2.8	4412712	OSV	DNA_	3	2	1
Croatian_2.8	683361	SOV	A_ND	2	1	1
Croatian_2.8	7896839	SOV	NA_D	1	2	1
Croatian_2.8	2192206	SOV	NDA_	2	3	1
Croatian_2.8	2247836	SOV	NDA_	2	3	1
Croatian_2.8	5845120	OSV	AD_N	1	1	2
Croatian_2.8	1920008	SVO	DA_N	2	1	1
Croatian_2.8	1936869	SVO	AD_N	1	1	2
Croatian_2.8	2854210	SVO	DA_N	2	1	1
Croatian_2.8	306933	SOV	DA_N	2	1	1
Croatian_2.8	3466204	SOV	NDA_	2	3	1
Croatian_2.8	3489273	SOV	DA_N	2	1	1
Croatian_2.8	3984552	SOV	DA_N	2	1	1
Croatian_2.8	424398	SOV	AD_N	1	1	2
Croatian_2.8	4690717	SOV	NA_D	1	2	1
Croatian_2.8	7009185	SOV	DA_N	2	1	1
Croatian_2.8	7999719	SOV	DA_N	2	1	1
Croatian_2.8	9738680	SOV	A_ND	2	1	1
Czech-PDT_2.8	1341674	SOV	NDA_	2	3	1
Czech-PDT_2.8	1821597	SVO	NDA_	2	3	1
Czech-PDT_2.8	2394383	SOV	NDA_	2	3	1
Czech-PDT_2.8	2562847	SOV	NDA_	2	3	1
Czech-PDT_2.8	3022872	SOV	A_DN	1	2	1
Czech-PDT_2.8	3033648	SOV	NDA_	2	3	1
Czech-PDT_2.8	3072041	SOV	NDA_	2	3	1
Czech-PDT_2.8	3323007	SOV	NDA_	2	3	1
Czech-PDT_2.8	38816	SOV	NDA_	2	3	1
Czech-PDT_2.8	4590100	SOV	NDA_	2	3	1
Czech-PDT_2.8	474240	SOV	NDA_	2	3	1
Czech-PDT_2.8	4980647	SOV	NDA_	2	3	1
Czech-PDT_2.8	5327172	SOV	NDA_	2	3	1
Czech-PDT_2.8	5869811	SOV	NDA_	2	3	1
Czech-PDT_2.8	6081005	SOV	NDA_	2	3	1
Czech-PDT_2.8	6614688	SOV	NDA_	2	3	1
Czech-PDT_2.8	7696352	SOV	NDA_	2	3	1
Czech-PDT_2.8	7988686	SOV	NDA_	2	3	1
Czech-PDT_2.8	8302494	SOV	NDA_	2	3	1
Czech-PDT_2.8	8401406	SOV	A_DN	1	2	1
Czech-PDT_2.8	8546575	SOV	NDA_	2	3	1
Czech-PDT_2.8	9360388	SOV	NDA_	2	3	1
Czech-PDT_2.8	9385748	SOV	NDA_	2	3	1
Czech_2.8	1958072	SOV	DNA_	3	2	1
Czech_2.8	4924244	SVO	DA_N	2	1	1
Danish_2.8	3917620	SOV	ADN_	2	1	3
Danish_2.8	4982460	SOV	DAN_	3	1	2
Danish_2.8	5200262	SOV	DAN_	3	1	2
Danish_2.8	5621830	SOV	ADN_	2	1	3
Danish_2.8	6057151	SVO	ADN_	2	1	3
Danish_2.8	8195983	SVO	AN_D	1	1	2
Danish_2.8	9963132	SVO	AN_D	1	1	2
Danish_2.8	1257537	SVO	DAN_	3	1	2
Danish_2.8	6039997	OSV	A_ND	2	1	1
Danish_2.8	6239382	SVO	NDA_	2	3	1
Danish_2.8	9261404	SOV	AD_N	1	1	2
Danish_2.8	123989	SVO	AN_D	1	1	2
Danish_2.8	1360510	SOV	DAN_	3	1	2
Danish_2.8	1550940	OSV	DA_N	2	1	1
Danish_2.8	1650160	SOV	DAN_	3	1	2
Danish_2.8	1898826	OSV	A_ND	2	1	1
Danish_2.8	303137	SOV	NDA_	2	3	1
Danish_2.8	3420486	OSV	DAN_	3	1	2
Danish_2.8	4498473	OSV	DAN_	3	1	2
Danish_2.8	5128809	SVO	DAN_	3	1	2
Danish_2.8	6667243	OSV	DAN_	3	1	2
Danish_2.8	6823630	SOV	NAD_	1	3	2
Danish_2.8	896775	SVO	DAN_	3	1	2
Danish_2.8	9226249	SOV	DAN_	3	1	2
Danish_2.8	9943015	SOV	NDA_	2	3	1
Dutch_2.8	1595644	OSV	NA_D	1	2	1
Dutch_2.8	4021183	SVO	NA_D	1	2	1
Dutch_2.8	4727726	SOV	NA_D	1	2	1
Dutch_2.8	769016	SVO	NA_D	1	2	1
Dutch_2.8	8717862	OSV	NA_D	1	2	1
Dutch_2.8	9700631	SOV	NA_D	1	2	1
Dutch_2.8	5228378	SOV	A_ND	2	1	1
Dutch_2.8	1148561	SVO	NA_D	1	2	1
Dutch_2.8	1155504	SVO	NA_D	1	2	1
Dutch_2.8	192969	SVO	NA_D	1	2	1
Dutch_2.8	2160842	SVO	A_ND	2	1	1
Dutch_2.8	2342070	SOV	A_ND	2	1	1
Dutch_2.8	2594602	SOV	NA_D	1	2	1
Dutch_2.8	2605559	SVO	A_ND	2	1	1
Dutch_2.8	3224042	SOV	A_ND	2	1	1
Dutch_2.8	410890	OSV	ADN_	2	1	3
Dutch_2.8	5479716	SVO	A_DN	1	2	1
Dutch_2.8	625378	SOV	NA_D	1	2	1
Dutch_2.8	7772073	SVO	A_DN	1	2	1
Dutch_2.8	8951487	SVO	NA_D	1	2	1
Dutch_2.8	9321477	SVO	AN_D	1	1	2
Dutch_2.8	9370288	SOV	A_ND	2	1	1
English_2.8	134226	SVO	A_ND	2	1	1
English_2.8	1687903	SVO	AN_D	1	1	2
English_2.8	4850609	SVO	AN_D	1	1	2
English_2.8	4983328	SVO	AN_D	1	1	2
English_2.8	7473336	SVO	AN_D	1	1	2
English_2.8	7787765	SVO	AN_D	1	1	2
English_2.8	8269326	SVO	A_ND	2	1	1
English_2.8	2003165	SVO	AN_D	1	1	2
English_2.8	3300803	SVO	NA_D	1	2	1
English_2.8	8880749	SVO	A_ND	2	1	1
English_2.8	1596610	SVO	AN_D	1	1	2
English_2.8	3195873	SVO	NA_D	1	2	1
English_2.8	3201604	SVO	AN_D	1	1	2
English_2.8	3388339	SVO	NA_D	1	2	1
English_2.8	3389378	SVO	NA_D	1	2	1
English_2.8	3653725	SVO	AN_D	1	1	2
English_2.8	4250632	SVO	AN_D	1	1	2
English_2.8	5091742	SVO	A_ND	2	1	1
English_2.8	6079031	SVO	NA_D	1	2	1
English_2.8	6997111	SVO	NDA_	2	3	1
English_2.8	7308129	SVO	NA_D	1	2	1
English_2.8	9040636	SVO	NDA_	2	3	1
English_2.8	9337440	SVO	AN_D	1	1	2
English_2.8	980933	OSV	A_ND	2	1	1
English_2.8	9826880	SVO	AN_D	1	1	2
English_SWBD	1137185	SVO	DAN_	3	1	2
English_SWBD	1876851	SVO	DAN_	3	1	2
English_SWBD	2748298	SVO	DAN_	3	1	2
English_SWBD	2899484	SVO	DAN_	3	1	2
English_SWBD	302698	SVO	DAN_	3	1	2
English_SWBD	3844983	OSV	DNA_	3	2	1
English_SWBD	3922492	SVO	DAN_	3	1	2
English_SWBD	4212504	SVO	DAN_	3	1	2
English_SWBD	4349564	SVO	DNA_	3	2	1
English_SWBD	4684070	SVO	AN_D	1	1	2
English_SWBD	4963126	SOV	DA_N	2	1	1
English_SWBD	519765	SVO	DAN_	3	1	2
English_SWBD	585687	SVO	DAN_	3	1	2
English_SWBD	6103139	OSV	DAN_	3	1	2
English_SWBD	6236755	SVO	DAN_	3	1	2
English_SWBD	8202240	SVO	AN_D	1	1	2
English_SWBD	9345910	SVO	DAN_	3	1	2
English_SWBD	9457791	OSV	DAN_	3	1	2
English_SWBD	9466450	SVO	NA_D	1	2	1
English_SWBD	9505358	SVO	DAN_	3	1	2
Erzya_2.8	5074990	SVO	A_ND	2	1	1
Erzya_2.8	1236155	SOV	NAD_	1	3	2
Erzya_2.8	4315150	SVO	NAD_	1	3	2
Erzya_2.8	2156591	SVO	AD_N	1	1	2
Erzya_2.8	3245523	SOV	DA_N	2	1	1
Erzya_2.8	3813861	SOV	NDA_	2	3	1
Erzya_2.8	4165228	SOV	DNA_	3	2	1
Erzya_2.8	4684829	SOV	DA_N	2	1	1
Erzya_2.8	5188551	SVO	NDA_	2	3	1
Erzya_2.8	5254736	SOV	DA_N	2	1	1
Erzya_2.8	7045085	SOV	DA_N	2	1	1
Erzya_2.8	7760881	SOV	DNA_	3	2	1
Erzya_2.8	8138694	SVO	NDA_	2	3	1
Erzya_2.8	8159480	SVO	NAD_	1	3	2
Erzya_2.8	90721	SOV	A_DN	1	2	1
Erzya_2.8	990694	SOV	AD_N	1	1	2
Estonian_2.8	1176234	OSV	ADN_	2	1	3
Estonian_2.8	23289	SOV	NDA_	2	3	1
Estonian_2.8	4812174	SOV	ADN_	2	1	3
Estonian_2.8	6469172	SOV	ADN_	2	1	3
Estonian_2.8	3230074	SOV	NDA_	2	3	1
Estonian_2.8	7960944	SOV	DNA_	3	2	1
Estonian_2.8	4035262	OSV	NAD_	1	3	2
Estonian_2.8	4093790	SOV	NDA_	2	3	1
Estonian_2.8	4963154	SOV	NDA_	2	3	1
Estonian_2.8	1532002	OSV	DA_N	2	1	1
Estonian_2.8	155404	OSV	DAN_	3	1	2
Estonian_2.8	1770950	SOV	DAN_	3	1	2
Estonian_2.8	3110191	SOV	DAN_	3	1	2
Estonian_2.8	3535153	OSV	DAN_	3	1	2
Estonian_2.8	3636078	SOV	DAN_	3	1	2
Estonian_2.8	4276944	OSV	DAN_	3	1	2
Estonian_2.8	6693283	SVO	DAN_	3	1	2
Estonian_2.8	7935256	OSV	DAN_	3	1	2
Estonian_2.8	8277564	OSV	DAN_	3	1	2
Estonian_2.8	8437641	OSV	DAN_	3	1	2
Estonian_2.8	8471156	OSV	DNA_	3	2	1
Estonian_2.8	9758724	SOV	DAN_	3	1	2
Faroese_2.8	7976613	SOV	DAN_	3	1	2
Faroese_2.8	8219171	SOV	NA_D	1	2	1
Faroese_2.8	8966657	SOV	AN_D	1	1	2
Faroese_2.8	1022346	SVO	A_DN	1	2	1
Faroese_2.8	1250602	OSV	ADN_	2	1	3
Faroese_2.8	2054290	SVO	A_DN	1	2	1
Faroese_2.8	9128183	OSV	A_ND	2	1	1
Faroese_2.8	5772747	SVO	DA_N	2	1	1
Faroese_2.8	8186843	SVO	DAN_	3	1	2
Faroese_2.8	3143535	OSV	NA_D	1	2	1
Faroese_2.8	2084990	SVO	DAN_	3	1	2
Faroese_2.8	2634732	SOV	NDA_	2	3	1
Faroese_2.8	2026563	SVO	DA_N	2	1	1
Faroese_2.8	217223	SOV	DA_N	2	1	1
Faroese_2.8	2232148	SVO	DA_N	2	1	1
Faroese_2.8	3025793	SVO	DAN_	3	1	2
Faroese_2.8	374784	SOV	DA_N	2	1	1
Faroese_2.8	4115163	SOV	DAN_	3	1	2
Faroese_2.8	4977254	SVO	DA_N	2	1	1
Faroese_2.8	5312610	SVO	DA_N	2	1	1
Faroese_2.8	6597321	SOV	NDA_	2	3	1
Faroese_2.8	6739076	SVO	DA_N	2	1	1
Faroese_2.8	6998278	SVO	DA_N	2	1	1
Faroese_2.8	7646993	OSV	NA_D	1	2	1
Faroese_2.8	8059656	SVO	DAN_	3	1	2
Faroese_2.8	8157233	SVO	DA_N	2	1	1
Faroese_2.8	840293	SVO	A_DN	1	2	1
Finnish_2.8	482547	SOV	DAN_	3	1	2
Finnish_2.8	6025886	SOV	DAN_	3	1	2
Finnish_2.8	717792	SOV	DAN_	3	1	2
Finnish_2.8	7396467	SOV	DAN_	3	1	2
Finnish_2.8	9547187	SOV	DAN_	3	1	2
Finnish_2.8	9713074	SOV	DAN_	3	1	2
Finnish_2.8	7292927	SOV	DNA_	3	2	1
Finnish_2.8	7989172	SOV	DNA_	3	2	1
Finnish_2.8	803083	SVO	DNA_	3	2	1
Finnish_2.8	3974132	OSV	NDA_	2	3	1
Finnish_2.8	5220222	SOV	DNA_	3	2	1
Finnish_2.8	9451616	SOV	DNA_	3	2	1
Finnish_2.8	1067494	SOV	A_DN	1	2	1
Finnish_2.8	2641829	OSV	AND_	1	2	3
Finnish_2.8	3439290	OSV	AND_	1	2	3
Finnish_2.8	3731327	SOV	A_DN	1	2	1
Finnish_2.8	4385480	SOV	A_DN	1	2	1
Finnish_2.8	5179985	SOV	NDA_	2	3	1
Finnish_2.8	5531822	SOV	A_DN	1	2	1
Finnish_2.8	5964619	OSV	AND_	1	2	3
Finnish_2.8	6879501	OSV	DAN_	3	1	2
Finnish_2.8	7058838	SOV	DAN_	3	1	2
Finnish_2.8	8833291	SOV	A_DN	1	2	1
Finnish_2.8	9212889	SOV	DAN_	3	1	2
Finnish_2.8	934521	OSV	AND_	1	2	3
Finnish_2.8	9587444	OSV	AND_	1	2	3
French-Spoken_2.8	1582170	SVO	DAN_	3	1	2
French-Spoken_2.8	1685529	SVO	DAN_	3	1	2
French-Spoken_2.8	1645559	SVO	NA_D	1	2	1
French-Spoken_2.8	1792292	SVO	NA_D	1	2	1
French-Spoken_2.8	2012777	SVO	NA_D	1	2	1
French-Spoken_2.8	2753705	OSV	NA_D	1	2	1
French-Spoken_2.8	2975527	SVO	NA_D	1	2	1
French-Spoken_2.8	3352463	SVO	NA_D	1	2	1
French-Spoken_2.8	3640938	OSV	NA_D	1	2	1
French-Spoken_2.8	3731260	OSV	NA_D	1	2	1
French-Spoken_2.8	3850230	SVO	A_ND	2	1	1
French-Spoken_2.8	5246228	SVO	AN_D	1	1	2
French-Spoken_2.8	5310048	SVO	AN_D	1	1	2
French-Spoken_2.8	5548468	SVO	NA_D	1	2	1
French-Spoken_2.8	6355737	SVO	NA_D	1	2	1
French-Spoken_2.8	7213900	SVO	A_DN	1	2	1
French-Spoken_2.8	7688504	SVO	NA_D	1	2	1
French-Spoken_2.8	8726005	OSV	NA_D	1	2	1
French-Spoken_2.8	9100329	SVO	A_DN	1	2	1
French-Spoken_2.8	9117391	SVO	NA_D	1	2	1
French-Spoken_2.8	9257821	SVO	NA_D	1	2	1
French-Spoken_2.8	9803053	SVO	A_ND	2	1	1
French_2.8	209080	SVO	A_ND	2	1	1
French_2.8	4428187	OSV	A_ND	2	1	1
French_2.8	6068903	SVO	A_ND	2	1	1
French_2.8	6109158	SVO	NA_D	1	2	1
French_2.8	6279824	SVO	A_ND	2	1	1
French_2.8	873215	OSV	A_ND	2	1	1
French_2.8	8838655	SVO	NA_D	1	2	1
French_2.8	9321090	SVO	A_ND	2	1	1
French_2.8	9579892	SVO	AN_D	1	1	2
French_2.8	964067	SVO	A_ND	2	1	1
French_2.8	9835897	SVO	A_ND	2	1	1
French_2.8	9000971	SVO	A_ND	2	1	1
French_2.8	1311441	SVO	A_ND	2	1	1
French_2.8	280157	OSV	A_ND	2	1	1
French_2.8	4387821	SVO	A_ND	2	1	1
French_2.8	4519032	SVO	A_ND	2	1	1
French_2.8	4658721	OSV	A_ND	2	1	1
French_2.8	5184954	OSV	A_ND	2	1	1
French_2.8	5925932	OSV	DA_N	2	1	1
French_2.8	618443	OSV	A_ND	2	1	1
French_2.8	6619670	SVO	A_ND	2	1	1
French_2.8	6986021	OSV	A_ND	2	1	1
French_2.8	7883460	OSV	A_ND	2	1	1
French_2.8	946137	SVO	A_ND	2	1	1
French_2.8	946816	SVO	A_ND	2	1	1
French_2.8	9590676	SVO	A_ND	2	1	1
Galician_2.8	2052643	SOV	A_ND	2	1	1
Galician_2.8	8096012	SOV	A_ND	2	1	1
Galician_2.8	8361480	SOV	A_ND	2	1	1
Galician_2.8	2805740	OSV	A_DN	1	2	1
Galician_2.8	3577998	SVO	A_DN	1	2	1
Galician_2.8	4454200	OSV	A_DN	1	2	1
Galician_2.8	6338323	SVO	A_DN	1	2	1
Galician_2.8	1789093	SOV	A_ND	2	1	1
Galician_2.8	308937	OSV	A_ND	2	1	1
Galician_2.8	8857401	SOV	A_DN	1	2	1
Galician_2.8	9415952	SVO	A_DN	1	2	1
Galician_2.8	1036156	OSV	A_DN	1	2	1
Galician_2.8	1895505	SOV	A_DN	1	2	1
Galician_2.8	2376186	SVO	A_DN	1	2	1
Galician_2.8	4768491	SVO	A_DN	1	2	1
Galician_2.8	6311	SVO	A_DN	1	2	1
Galician_2.8	6325365	SVO	A_DN	1	2	1
Galician_2.8	7428639	OSV	A_DN	1	2	1
Galician_2.8	7476575	SOV	A_DN	1	2	1
Galician_2.8	8671639	SVO	A_DN	1	2	1
Galician_2.8	9045127	SVO	A_DN	1	2	1
Galician_2.8	9114177	SVO	A_DN	1	2	1
Galician_2.8	9264615	OSV	A_DN	1	2	1
Galician_2.8	985481	SVO	A_DN	1	2	1
German-GSD_2.8	2224341	SVO	NA_D	1	2	1
German-GSD_2.8	3280637	SOV	AN_D	1	1	2
German-GSD_2.8	3445608	SVO	AN_D	1	1	2
German-GSD_2.8	4844349	SVO	AN_D	1	1	2
German-GSD_2.8	594832	SVO	AN_D	1	1	2
German-GSD_2.8	6782094	SVO	AN_D	1	1	2
German-GSD_2.8	7974419	OSV	AN_D	1	1	2
German-GSD_2.8	8977475	OSV	AN_D	1	1	2
German-GSD_2.8	2933617	OSV	AN_D	1	1	2
German-GSD_2.8	5226887	SVO	AN_D	1	1	2
German-GSD_2.8	5389707	OSV	NA_D	1	2	1
German-GSD_2.8	7601252	SOV	AN_D	1	1	2
German-GSD_2.8	6964306	SVO	AN_D	1	1	2
German-GSD_2.8	8190068	SVO	AN_D	1	1	2
German-GSD_2.8	2066214	OSV	AN_D	1	1	2
German-GSD_2.8	2151783	SOV	AN_D	1	1	2
German-GSD_2.8	2271745	SOV	AN_D	1	1	2
German-GSD_2.8	260407	SOV	AN_D	1	1	2
German-GSD_2.8	2913450	SVO	AN_D	1	1	2
German-GSD_2.8	3510315	SVO	AN_D	1	1	2
German-GSD_2.8	4801496	SVO	AN_D	1	1	2
German-GSD_2.8	4995533	SOV	AN_D	1	1	2
German-GSD_2.8	6236617	SOV	AN_D	1	1	2
German-GSD_2.8	6255712	SVO	AN_D	1	1	2
German-GSD_2.8	7393870	SOV	AN_D	1	1	2
German-GSD_2.8	7444506	SOV	AN_D	1	1	2
German-GSD_2.8	7685439	SOV	AN_D	1	1	2
German-GSD_2.8	7781713	SVO	AN_D	1	1	2
German-GSD_2.8	8824978	SOV	NA_D	1	2	1
German-GSD_2.8	7700279	SOV	NA_D	1	2	1
German_2.8	2040974	SOV	A_ND	2	1	1
Gothic_2.8	1392219	SVO	A_DN	1	2	1
Gothic_2.8	2019497	SOV	NDA_	2	3	1
Gothic_2.8	3617395	SOV	NDA_	2	3	1
Gothic_2.8	5053625	SVO	DA_N	2	1	1
Gothic_2.8	5400320	SVO	DA_N	2	1	1
Gothic_2.8	5979855	SVO	NDA_	2	3	1
Gothic_2.8	8509628	SVO	DAN_	3	1	2
Gothic_2.8	883515	SVO	DAN_	3	1	2
Gothic_2.8	8966435	OSV	DA_N	2	1	1
Gothic_2.8	1629740	SOV	DA_N	2	1	1
Gothic_2.8	2643604	SVO	DA_N	2	1	1
Gothic_2.8	5233091	SOV	DA_N	2	1	1
Gothic_2.8	5264810	SOV	DA_N	2	1	1
Gothic_2.8	7235532	OSV	DA_N	2	1	1
Gothic_2.8	1122958	OSV	DA_N	2	1	1
Gothic_2.8	131635	OSV	DA_N	2	1	1
Gothic_2.8	1402840	SOV	DA_N	2	1	1
Gothic_2.8	3050527	SOV	DA_N	2	1	1
Gothic_2.8	3937260	SOV	A_ND	2	1	1
Gothic_2.8	411224	OSV	DA_N	2	1	1
Gothic_2.8	4543311	OSV	DA_N	2	1	1
Gothic_2.8	5267277	SOV	A_ND	2	1	1
Gothic_2.8	551431	SOV	A_ND	2	1	1
Gothic_2.8	7092596	OSV	DA_N	2	1	1
Gothic_2.8	7096226	SVO	DA_N	2	1	1
Gothic_2.8	7757606	SVO	A_ND	2	1	1
Gothic_2.8	9260975	SVO	DNA_	3	2	1
Greek_2.8	3377404	SVO	NA_D	1	2	1
Greek_2.8	507451	SOV	NA_D	1	2	1
Greek_2.8	6132960	SOV	NA_D	1	2	1
Greek_2.8	6748269	SOV	NA_D	1	2	1
Greek_2.8	870030	SOV	NA_D	1	2	1
Greek_2.8	2308539	SVO	NA_D	1	2	1
Greek_2.8	601389	SOV	NA_D	1	2	1
Greek_2.8	1313833	SOV	NA_D	1	2	1
Greek_2.8	1957907	SVO	NA_D	1	2	1
Greek_2.8	2521732	SVO	NA_D	1	2	1
Greek_2.8	3039344	SVO	NA_D	1	2	1
Greek_2.8	3587052	SVO	NA_D	1	2	1
Greek_2.8	4523616	SOV	NA_D	1	2	1
Greek_2.8	4736257	SOV	NA_D	1	2	1
Greek_2.8	6724394	SVO	NA_D	1	2	1
Greek_2.8	717714	SOV	A_DN	1	2	1
Greek_2.8	7274979	SOV	NA_D	1	2	1
Greek_2.8	8005107	SOV	NA_D	1	2	1
Greek_2.8	8015230	SOV	NA_D	1	2	1
Greek_2.8	8192946	SVO	NA_D	1	2	1
Greek_2.8	8278417	SVO	NA_D	1	2	1
Greek_2.8	8743504	SVO	NA_D	1	2	1
Hebrew_2.8	1265721	SVO	NA_D	1	2	1
Hebrew_2.8	282051	SVO	DA_N	2	1	1
Hebrew_2.8	2943072	SOV	AN_D	1	1	2
Hebrew_2.8	4223344	SOV	NA_D	1	2	1
Hebrew_2.8	4363013	SOV	ADN_	2	1	3
Hebrew_2.8	4646879	SVO	AN_D	1	1	2
Hebrew_2.8	5316767	SOV	DA_N	2	1	1
Hebrew_2.8	5648053	SOV	ADN_	2	1	3
Hebrew_2.8	2301181	SOV	DAN_	3	1	2
Hebrew_2.8	4424040	SOV	DNA_	3	2	1
Hebrew_2.8	1229131	SOV	DAN_	3	1	2
Hebrew_2.8	1292469	SOV	DNA_	3	2	1
Hebrew_2.8	2445855	SOV	ADN_	2	1	3
Hebrew_2.8	2484396	SOV	DAN_	3	1	2
Hebrew_2.8	2588485	SVO	DA_N	2	1	1
Hebrew_2.8	3144840	SVO	DA_N	2	1	1
Hebrew_2.8	5999401	SVO	DA_N	2	1	1
Hebrew_2.8	613572	SVO	DA_N	2	1	1
Hebrew_2.8	6282168	SVO	DA_N	2	1	1
Hebrew_2.8	6595791	SOV	DAN_	3	1	2
Hebrew_2.8	6924544	SOV	DAN_	3	1	2
Hebrew_2.8	6959449	SOV	DA_N	2	1	1
Hebrew_2.8	9693901	SVO	DA_N	2	1	1
Hindi_2.8	1114685	SOV	DNA_	3	2	1
Hindi_2.8	1707022	SOV	DNA_	3	2	1
Hindi_2.8	2777487	SOV	DNA_	3	2	1
Hindi_2.8	2868152	SOV	DNA_	3	2	1
Hindi_2.8	3262716	SOV	DNA_	3	2	1
Hindi_2.8	4113069	SOV	DNA_	3	2	1
Hindi_2.8	4529715	SOV	DNA_	3	2	1
Hindi_2.8	8135051	SOV	DNA_	3	2	1
Hindi_2.8	2580767	SOV	DNA_	3	2	1
Hindi_2.8	2692620	SOV	DNA_	3	2	1
Hindi_2.8	2706006	SOV	DNA_	3	2	1
Hindi_2.8	8245246	OSV	DNA_	3	2	1
Hindi_2.8	8726356	SOV	DNA_	3	2	1
Hindi_2.8	9317371	SOV	DNA_	3	2	1
Hindi_2.8	1877639	SOV	DNA_	3	2	1
Hindi_2.8	5778368	SOV	DNA_	3	2	1
Hindi_2.8	866494	SOV	DNA_	3	2	1
Hindi_2.8	1408073	SOV	DNA_	3	2	1
Hindi_2.8	1987810	SOV	DNA_	3	2	1
Hindi_2.8	2747798	SOV	DNA_	3	2	1
Hindi_2.8	3692757	SOV	DNA_	3	2	1
Hindi_2.8	3709769	SOV	DNA_	3	2	1
Hindi_2.8	4572271	SOV	DNA_	3	2	1
Hindi_2.8	5245903	SOV	DNA_	3	2	1
Hindi_2.8	5436072	SOV	DNA_	3	2	1
Hindi_2.8	5613228	SOV	DNA_	3	2	1
Hindi_2.8	7790146	SOV	DNA_	3	2	1
Hindi_2.8	8301709	SOV	DNA_	3	2	1
Hindi_2.8	867498	OSV	DNA_	3	2	1
Hindi_2.8	9346429	OSV	DNA_	3	2	1
Hindi_2.8	94033	SOV	DNA_	3	2	1
Hindi_2.8	9792052	SOV	DNA_	3	2	1
Hungarian_2.8	1358423	SOV	DA_N	2	1	1
Hungarian_2.8	4678901	SOV	DA_N	2	1	1
Hungarian_2.8	5491771	SOV	DNA_	3	2	1
Hungarian_2.8	7330901	SOV	DA_N	2	1	1
Hungarian_2.8	8660580	SOV	DNA_	3	2	1
Hungarian_2.8	9434217	SOV	DA_N	2	1	1
Hungarian_2.8	9085016	SOV	DAN_	3	1	2
Hungarian_2.8	9309958	SOV	ADN_	2	1	3
Hungarian_2.8	8272952	SOV	DA_N	2	1	1
Hungarian_2.8	2073438	OSV	DAN_	3	1	2
Hungarian_2.8	3217007	OSV	DAN_	3	1	2
Hungarian_2.8	1859498	OSV	AD_N	1	1	2
Hungarian_2.8	2444360	SOV	AD_N	1	1	2
Hungarian_2.8	2933658	SOV	AD_N	1	1	2
Hungarian_2.8	5517869	OSV	DAN_	3	1	2
Hungarian_2.8	5781404	OSV	DAN_	3	1	2
Hungarian_2.8	6814010	SOV	DAN_	3	1	2
Hungarian_2.8	7186698	SOV	AD_N	1	1	2
Hungarian_2.8	743662	OSV	NAD_	1	3	2
Hungarian_2.8	7841722	SOV	DAN_	3	1	2
Hungarian_2.8	7920660	SOV	DAN_	3	1	2
Hungarian_2.8	8756544	SVO	AD_N	1	1	2
Hungarian_2.8	9049312	SOV	DAN_	3	1	2
Hungarian_2.8	9325009	SVO	NAD_	1	3	2
ISWOC_Old_English	1243108	SVO	NA_D	1	2	1
ISWOC_Old_English	1307758	SVO	DNA_	3	2	1
ISWOC_Old_English	3134114	SVO	NA_D	1	2	1
ISWOC_Old_English	3871586	OSV	NA_D	1	2	1
ISWOC_Old_English	629575	SVO	AN_D	1	1	2
ISWOC_Old_English	6554597	SVO	NA_D	1	2	1
ISWOC_Old_English	726166	SVO	DNA_	3	2	1
ISWOC_Old_English	7307382	SVO	NA_D	1	2	1
ISWOC_Old_English	7842383	SVO	NA_D	1	2	1
ISWOC_Old_English	8121974	SVO	NA_D	1	2	1
ISWOC_Old_English	8356858	SVO	NA_D	1	2	1
ISWOC_Old_English	8392118	SVO	DAN_	3	1	2
ISWOC_Old_English	8425828	SVO	NA_D	1	2	1
ISWOC_Old_English	8487732	SVO	NA_D	1	2	1
ISWOC_Old_English	9313122	SVO	DNA_	3	2	1
ISWOC_Old_English	9680449	OSV	AN_D	1	1	2
ISWOC_Old_English	9882540	SVO	NA_D	1	2	1
ISWOC_Portuguese	1485726	SOV	AND_	1	2	3
ISWOC_Portuguese	1852066	SOV	NA_D	1	2	1
ISWOC_Portuguese	381326	SOV	NA_D	1	2	1
ISWOC_Portuguese	4422161	SOV	NA_D	1	2	1
ISWOC_Portuguese	5002750	SOV	NA_D	1	2	1
ISWOC_Portuguese	5727574	SOV	NAD_	1	3	2
ISWOC_Portuguese	5757453	OSV	AND_	1	2	3
ISWOC_Portuguese	6561438	SOV	NAD_	1	3	2
ISWOC_Portuguese	7921931	SOV	NA_D	1	2	1
ISWOC_Portuguese	7951797	SOV	NA_D	1	2	1
ISWOC_Portuguese	8651965	SOV	NA_D	1	2	1
ISWOC_Spanish	2200740	SOV	NA_D	1	2	1
ISWOC_Spanish	2865017	OSV	NA_D	1	2	1
ISWOC_Spanish	4717220	OSV	NA_D	1	2	1
ISWOC_Spanish	473037	SOV	AN_D	1	1	2
ISWOC_Spanish	5052135	SOV	AN_D	1	1	2
ISWOC_Spanish	653889	SOV	AND_	1	2	3
ISWOC_Spanish	6932669	OSV	NA_D	1	2	1
ISWOC_Spanish	7489080	SOV	AN_D	1	1	2
ISWOC_Spanish	7797017	SOV	AN_D	1	1	2
ISWOC_Spanish	943468	OSV	NA_D	1	2	1
Icelandic_2.8	1781802	OSV	ADN_	2	1	3
Icelandic_2.8	4937276	SVO	ADN_	2	1	3
Icelandic_2.8	3524438	SVO	DA_N	2	1	1
Icelandic_2.8	2315478	SVO	DAN_	3	1	2
Icelandic_2.8	1041081	SVO	DAN_	3	1	2
Icelandic_2.8	1362922	OSV	ADN_	2	1	3
Icelandic_2.8	202831	OSV	DAN_	3	1	2
Icelandic_2.8	2688597	OSV	DAN_	3	1	2
Icelandic_2.8	3062261	SVO	DNA_	3	2	1
Icelandic_2.8	4792816	SVO	DAN_	3	1	2
Icelandic_2.8	638701	OSV	ADN_	2	1	3
Icelandic_2.8	7197449	SVO	AN_D	1	1	2
Icelandic_2.8	7506640	OSV	DAN_	3	1	2
Icelandic_2.8	8992934	SVO	DAN_	3	1	2
Icelandic_2.8	9153652	SOV	AD_N	1	1	2
Icelandic_2.8	9586639	SVO	ADN_	2	1	3
Icelandic_2.8	9633227	SVO	A_DN	1	2	1
Indonesian_2.8	1178228	SOV	NDA_	2	3	1
Indonesian_2.8	2630308	SOV	NDA_	2	3	1
Indonesian_2.8	2664755	SOV	NDA_	2	3	1
Indonesian_2.8	281306	SOV	DAN_	3	1	2
Indonesian_2.8	4207955	SOV	NDA_	2	3	1
Indonesian_2.8	5456789	SOV	DNA_	3	2	1
Indonesian_2.8	6006423	SOV	DAN_	3	1	2
Indonesian_2.8	6079080	SOV	DAN_	3	1	2
Indonesian_2.8	8407843	SOV	DAN_	3	1	2
Indonesian_2.8	8460437	SOV	DAN_	3	1	2
Indonesian_2.8	9095416	SOV	DAN_	3	1	2
Indonesian_2.8	9701769	SOV	DAN_	3	1	2
Indonesian_2.8	6186702	SOV	DAN_	3	1	2
Indonesian_2.8	2534895	OSV	NDA_	2	3	1
Indonesian_2.8	6170753	SOV	DAN_	3	1	2
Indonesian_2.8	7323882	SOV	DAN_	3	1	2
Indonesian_2.8	1099312	SOV	DNA_	3	2	1
Indonesian_2.8	247373	SOV	DNA_	3	2	1
Indonesian_2.8	3159952	OSV	DA_N	2	1	1
Indonesian_2.8	3476528	SOV	NDA_	2	3	1
Indonesian_2.8	4288941	SOV	NDA_	2	3	1
Indonesian_2.8	4799201	SOV	NDA_	2	3	1
Indonesian_2.8	585499	SVO	DNA_	3	2	1
Indonesian_2.8	7298531	SVO	NA_D	1	2	1
Indonesian_2.8	7397619	SOV	DNA_	3	2	1
Indonesian_2.8	7818641	SOV	DA_N	2	1	1
Indonesian_2.8	8404048	SOV	NDA_	2	3	1
Indonesian_2.8	9196865	SOV	DNA_	3	2	1
Irish_2.8	1089680	SVO	NDA_	2	3	1
Irish_2.8	305026	OSV	A_DN	1	2	1
Irish_2.8	3709881	OSV	NDA_	2	3	1
Irish_2.8	4294334	OSV	A_DN	1	2	1
Irish_2.8	4522531	SVO	NA_D	1	2	1
Irish_2.8	6470239	OSV	NA_D	1	2	1
Irish_2.8	7712527	OSV	A_DN	1	2	1
Irish_2.8	7842978	OSV	AN_D	1	1	2
Irish_2.8	9756335	SOV	A_DN	1	2	1
Irish_2.8	1425867	SOV	AND_	1	2	3
Irish_2.8	2549630	OSV	AN_D	1	1	2
Irish_2.8	3562538	SOV	AD_N	1	1	2
Irish_2.8	4819192	OSV	DAN_	3	1	2
Irish_2.8	7911714	OSV	AD_N	1	1	2
Irish_2.8	4607241	SOV	NA_D	1	2	1
Irish_2.8	1720040	SOV	AD_N	1	1	2
Irish_2.8	2417523	OSV	A_DN	1	2	1
Irish_2.8	2903694	OSV	AN_D	1	1	2
Irish_2.8	3866123	OSV	AD_N	1	1	2
Irish_2.8	1516276	OSV	DA_N	2	1	1
Irish_2.8	1674	SOV	AN_D	1	1	2
Irish_2.8	2566056	SOV	DA_N	2	1	1
Irish_2.8	2634976	SOV	NA_D	1	2	1
Irish_2.8	2692050	OSV	A_DN	1	2	1
Irish_2.8	3509996	SOV	NA_D	1	2	1
Irish_2.8	6222802	SOV	DA_N	2	1	1
Irish_2.8	6385889	OSV	NA_D	1	2	1
Irish_2.8	7044484	SOV	A_DN	1	2	1
Irish_2.8	8710707	SOV	A_DN	1	2	1
Italian_2.8	2202374	SVO	AN_D	1	1	2
Italian_2.8	2478443	SOV	AN_D	1	1	2
Italian_2.8	2632357	SVO	AN_D	1	1	2
Italian_2.8	3045358	OSV	AN_D	1	1	2
Italian_2.8	4823001	OSV	AN_D	1	1	2
Italian_2.8	5634201	OSV	AN_D	1	1	2
Italian_2.8	6340310	OSV	AN_D	1	1	2
Italian_2.8	654985	SVO	NA_D	1	2	1
Italian_2.8	67959	SVO	AN_D	1	1	2
Italian_2.8	6883503	OSV	AD_N	1	1	2
Italian_2.8	3395048	OSV	NA_D	1	2	1
Italian_2.8	6240872	OSV	NA_D	1	2	1
Italian_2.8	718071	OSV	NA_D	1	2	1
Italian_2.8	9242581	OSV	NA_D	1	2	1
Italian_2.8	3200878	SOV	NA_D	1	2	1
Italian_2.8	533165	OSV	NA_D	1	2	1
Italian_2.8	5656329	SOV	A_DN	1	2	1
Italian_2.8	7523465	SOV	NA_D	1	2	1
Italian_2.8	1364418	SOV	NA_D	1	2	1
Italian_2.8	2064549	OSV	NA_D	1	2	1
Italian_2.8	2571470	OSV	AN_D	1	1	2
Italian_2.8	270558	OSV	NA_D	1	2	1
Italian_2.8	2888033	OSV	AN_D	1	1	2
Italian_2.8	4044423	OSV	DAN_	3	1	2
Italian_2.8	4665714	OSV	NA_D	1	2	1
Italian_2.8	5583820	OSV	NA_D	1	2	1
Italian_2.8	6695826	SOV	NA_D	1	2	1
Italian_2.8	6724629	SOV	NA_D	1	2	1
Italian_2.8	9639687	SOV	AN_D	1	1	2
Japanese-GSD_2.8	2444157	SOV	DAN_	3	1	2
Japanese-GSD_2.8	4422448	SOV	DAN_	3	1	2
Japanese-GSD_2.8	484600	SOV	DA_N	2	1	1
Japanese-GSD_2.8	4913566	SOV	DAN_	3	1	2
Japanese-GSD_2.8	5131554	SOV	DAN_	3	1	2
Japanese-GSD_2.8	5535468	SOV	DAN_	3	1	2
Japanese-GSD_2.8	5606797	SOV	DAN_	3	1	2
Japanese-GSD_2.8	683246	SOV	DAN_	3	1	2
Japanese-GSD_2.8	8469707	SOV	DAN_	3	1	2
Japanese-GSD_2.8	9055217	SOV	DAN_	3	1	2
Japanese-GSD_2.8	2158931	SOV	DAN_	3	1	2
Japanese-GSD_2.8	3904755	SOV	ADN_	2	1	3
Japanese-GSD_2.8	5168207	SOV	DAN_	3	1	2
Japanese-GSD_2.8	9250872	SOV	DAN_	3	1	2
Japanese-GSD_2.8	1616799	SOV	DNA_	3	2	1
Japanese-GSD_2.8	2241728	SVO	AND_	1	2	3
Japanese-GSD_2.8	3262740	SOV	DAN_	3	1	2
Japanese-GSD_2.8	3453294	SOV	DAN_	3	1	2
Japanese-GSD_2.8	3819968	SOV	NAD_	1	3	2
Japanese-GSD_2.8	4221957	SVO	NAD_	1	3	2
Japanese-GSD_2.8	440082	SVO	NA_D	1	2	1
Japanese-GSD_2.8	4567065	SVO	NA_D	1	2	1
Japanese-GSD_2.8	5333339	SVO	DNA_	3	2	1
Japanese-GSD_2.8	53766	SOV	DNA_	3	2	1
Japanese-GSD_2.8	6131202	SOV	DAN_	3	1	2
Japanese-GSD_2.8	6232774	SVO	NAD_	1	3	2
Japanese-GSD_2.8	6439702	SOV	NAD_	1	3	2
Japanese-GSD_2.8	7916713	SOV	NAD_	1	3	2
Japanese-GSD_2.8	83502	SOV	NA_D	1	2	1
Japanese-GSD_2.8	1356366	SOV	AN_D	1	1	2
Japanese_2.8	5938849	SOV	DAN_	3	1	2
Japanese_2.8	7930140	SOV	DAN_	3	1	2
Kazakh_2.8	2712926	SOV	DNA_	3	2	1
Kazakh_2.8	397920	SOV	DAN_	3	1	2
Kazakh_2.8	4660998	SOV	DAN_	3	1	2
Kazakh_2.8	68677	SOV	DAN_	3	1	2
Kazakh_2.8	7488716	OSV	A_DN	1	2	1
Kazakh_2.8	7948118	SOV	DAN_	3	1	2
Kazakh_2.8	8949167	SOV	DAN_	3	1	2
Kazakh_2.8	5850255	OSV	AD_N	1	1	2
Kazakh_2.8	8296903	OSV	A_ND	2	1	1
Kazakh_2.8	1622359	SOV	DAN_	3	1	2
Kazakh_2.8	3040769	SOV	DAN_	3	1	2
Kazakh_2.8	418051	SOV	DAN_	3	1	2
Kazakh_2.8	5315841	SOV	DAN_	3	1	2
Kazakh_2.8	5666902	OSV	A_ND	2	1	1
Kazakh_2.8	6287496	OSV	ADN_	2	1	3
Kazakh_2.8	7154617	SVO	NA_D	1	2	1
Kazakh_2.8	783819	SOV	A_ND	2	1	1
Kazakh_2.8	8162886	OSV	A_ND	2	1	1
Kazakh_2.8	8513761	SOV	DAN_	3	1	2
Kazakh_2.8	8708617	OSV	ADN_	2	1	3
Kazakh_2.8	9019547	SOV	DAN_	3	1	2
Kazakh_2.8	9202408	SOV	A_ND	2	1	1
Kiche_2.8	1055451	SOV	AND_	1	2	3
Kiche_2.8	232806	SOV	DA_N	2	1	1
Kiche_2.8	2676040	SOV	A_ND	2	1	1
Kiche_2.8	2923173	SOV	NDA_	2	3	1
Kiche_2.8	3223504	SOV	A_DN	1	2	1
Kiche_2.8	4116267	SOV	DA_N	2	1	1
Kiche_2.8	4312341	SOV	AN_D	1	1	2
Kiche_2.8	4529567	SOV	DA_N	2	1	1
Kiche_2.8	4911342	SOV	AN_D	1	1	2
Kiche_2.8	4914668	SOV	DA_N	2	1	1
Kiche_2.8	5744958	SOV	NAD_	1	3	2
Kiche_2.8	5917154	SOV	DNA_	3	2	1
Kiche_2.8	699194	SOV	NAD_	1	3	2
Kiche_2.8	9082184	SOV	NAD_	1	3	2
Kiche_2.8	946277	SOV	A_DN	1	2	1
Komi_Zyrian_2.8	188893	SVO	DA_N	2	1	1
Komi_Zyrian_2.8	1933688	SVO	DA_N	2	1	1
Komi_Zyrian_2.8	2558690	SVO	DAN_	3	1	2
Komi_Zyrian_2.8	271673	SVO	DA_N	2	1	1
Komi_Zyrian_2.8	2935113	SVO	DA_N	2	1	1
Komi_Zyrian_2.8	3077304	SVO	NDA_	2	3	1
Komi_Zyrian_2.8	365583	SVO	NAD_	1	3	2
Komi_Zyrian_2.8	3866228	SVO	A_ND	2	1	1
Komi_Zyrian_2.8	4177160	SVO	NDA_	2	3	1
Komi_Zyrian_2.8	5659428	SVO	A_DN	1	2	1
Komi_Zyrian_2.8	7509194	SVO	A_ND	2	1	1
Komi_Zyrian_2.8	7878316	SVO	DNA_	3	2	1
Komi_Zyrian_2.8	9453217	SVO	A_DN	1	2	1
Komi_Zyrian_2.8	9557703	SVO	DA_N	2	1	1
Komi_Zyrian_2.8	9961477	SVO	DA_N	2	1	1
Korean_2.8	3439670	SOV	NAD_	1	3	2
Korean_2.8	4115296	SOV	NAD_	1	3	2
Korean_2.8	5532449	SOV	AND_	1	2	3
Korean_2.8	5678795	SOV	NAD_	1	3	2
Korean_2.8	7408890	SOV	AND_	1	2	3
Korean_2.8	9531925	SOV	AND_	1	2	3
Korean_2.8	1615870	SOV	DAN_	3	1	2
Korean_2.8	5437010	SOV	DAN_	3	1	2
Korean_2.8	735041	SOV	DAN_	3	1	2
Korean_2.8	8488218	SOV	DAN_	3	1	2
Korean_2.8	7593701	SOV	DAN_	3	1	2
Korean_2.8	1866212	SOV	DAN_	3	1	2
Korean_2.8	2305826	SOV	DAN_	3	1	2
Korean_2.8	2618551	SOV	DAN_	3	1	2
Korean_2.8	3635910	SOV	DAN_	3	1	2
Korean_2.8	4153643	SOV	DAN_	3	1	2
Korean_2.8	4232508	SOV	DAN_	3	1	2
Korean_2.8	4756511	SOV	DAN_	3	1	2
Korean_2.8	6492195	SOV	DAN_	3	1	2
Korean_2.8	7643484	SOV	DAN_	3	1	2
Korean_2.8	7703743	SOV	DAN_	3	1	2
Korean_2.8	7739137	SOV	DAN_	3	1	2
Korean_2.8	8247421	SOV	DAN_	3	1	2
Korean_2.8	9134706	SOV	DAN_	3	1	2
Korean_2.8	9671526	SOV	ADN_	2	1	3
Kurmanji_2.8	3897795	OSV	A_DN	1	2	1
Kurmanji_2.8	6930359	SOV	A_DN	1	2	1
Kurmanji_2.8	766748	OSV	A_ND	2	1	1
Kurmanji_2.8	9674304	SVO	A_DN	1	2	1
Kurmanji_2.8	2547781	SVO	DNA_	3	2	1
Kurmanji_2.8	287029	SOV	A_DN	1	2	1
Kurmanji_2.8	3096992	SOV	A_DN	1	2	1
Kurmanji_2.8	4026621	SOV	A_DN	1	2	1
Kurmanji_2.8	6134730	SVO	NDA_	2	3	1
Kurmanji_2.8	627898	SVO	A_DN	1	2	1
Kurmanji_2.8	687395	SOV	A_DN	1	2	1
Kurmanji_2.8	7231071	SVO	NAD_	1	3	2
Kurmanji_2.8	7876393	SOV	A_ND	2	1	1
Kurmanji_2.8	9788263	SOV	A_ND	2	1	1
Kurmanji_2.8	9811920	SOV	A_DN	1	2	1
Latin-PROIEL_2.8	1271994	SOV	DAN_	3	1	2
Latin-PROIEL_2.8	2515667	SVO	DAN_	3	1	2
Latin-PROIEL_2.8	3196959	SVO	DAN_	3	1	2
Latin-PROIEL_2.8	466776	SOV	DA_N	2	1	1
Latin-PROIEL_2.8	4897236	SOV	DA_N	2	1	1
Latin-PROIEL_2.8	4937219	SVO	DAN_	3	1	2
Latin-PROIEL_2.8	498985	SVO	DAN_	3	1	2
Latin-PROIEL_2.8	592691	OSV	DAN_	3	1	2
Latin-PROIEL_2.8	6055598	SVO	DAN_	3	1	2
Latin-PROIEL_2.8	6882005	SVO	DAN_	3	1	2
Latin-PROIEL_2.8	7764219	SOV	AD_N	1	1	2
Latin-PROIEL_2.8	7886741	SVO	ADN_	2	1	3
Latin-PROIEL_2.8	7978075	SOV	DAN_	3	1	2
Latin-PROIEL_2.8	9624975	SOV	DA_N	2	1	1
Latin-PROIEL_2.8	9688652	SVO	DA_N	2	1	1
Latin_2.8	1579107	OSV	AND_	1	2	3
Latin_2.8	1712472	OSV	AND_	1	2	3
Latin_2.8	3174093	OSV	DAN_	3	1	2
Latin_2.8	3300755	OSV	AND_	1	2	3
Latin_2.8	6561635	SVO	DA_N	2	1	1
Latin_2.8	6576444	OSV	AND_	1	2	3
Latin_2.8	6869158	SOV	AN_D	1	1	2
Latin_2.8	3512562	SOV	NDA_	2	3	1
Latin_2.8	6362831	SOV	NDA_	2	3	1
Latin_2.8	3400867	SVO	NDA_	2	3	1
Latin_2.8	6915235	SVO	AND_	1	2	3
Latin_2.8	6987111	SVO	DNA_	3	2	1
Latin_2.8	2287941	SOV	ADN_	2	1	3
Latin_2.8	3547268	SOV	AD_N	1	1	2
Latin_2.8	4138152	SOV	NAD_	1	3	2
Latin_2.8	4544978	SOV	NAD_	1	3	2
Latin_2.8	4592275	SOV	NAD_	1	3	2
Latin_2.8	495977	SOV	DNA_	3	2	1
Latin_2.8	5504754	SOV	NAD_	1	3	2
Latin_2.8	8318206	SOV	ADN_	2	1	3
Latin_2.8	9029430	SOV	NAD_	1	3	2
Latin_2.8	9476316	SOV	ADN_	2	1	3
Latin_2.8	9620290	SOV	NAD_	1	3	2
Latvian_2.8	1225214	SVO	NAD_	1	3	2
Latvian_2.8	6848574	SVO	A_DN	1	2	1
Latvian_2.8	807634	SOV	NDA_	2	3	1
Latvian_2.8	8077153	SVO	NA_D	1	2	1
Latvian_2.8	4660642	SVO	NA_D	1	2	1
Latvian_2.8	6611862	SVO	NA_D	1	2	1
Latvian_2.8	8521019	SVO	NA_D	1	2	1
Latvian_2.8	1222333	SVO	NA_D	1	2	1
Latvian_2.8	4131461	SVO	AN_D	1	1	2
Latvian_2.8	1833824	SVO	ADN_	2	1	3
Latvian_2.8	2480470	SVO	ADN_	2	1	3
Latvian_2.8	2893090	SVO	ADN_	2	1	3
Latvian_2.8	5202784	OSV	ADN_	2	1	3
Latvian_2.8	6154291	SOV	DAN_	3	1	2
Latvian_2.8	6672353	SVO	ADN_	2	1	3
Latvian_2.8	749436	OSV	ADN_	2	1	3
Latvian_2.8	8609765	OSV	AN_D	1	1	2
Latvian_2.8	915216	SVO	ADN_	2	1	3
Latvian_2.8	958847	OSV	A_ND	2	1	1
Latvian_2.8	9896555	OSV	ADN_	2	1	3
Latvian_2.8	9905748	SVO	ADN_	2	1	3
Latvian_2.8	992892	SVO	ADN_	2	1	3
Lithuanian_2.8	143278	OSV	AN_D	1	1	2
Lithuanian_2.8	8995898	SOV	DA_N	2	1	1
Lithuanian_2.8	1960771	SVO	NDA_	2	3	1
Lithuanian_2.8	5855355	SVO	DA_N	2	1	1
Lithuanian_2.8	1132596	SVO	NDA_	2	3	1
Lithuanian_2.8	1339073	SVO	NDA_	2	3	1
Lithuanian_2.8	2274655	SVO	NDA_	2	3	1
Lithuanian_2.8	2632535	SOV	A_DN	1	2	1
Lithuanian_2.8	3256003	SOV	DNA_	3	2	1
Lithuanian_2.8	3264243	SVO	DA_N	2	1	1
Lithuanian_2.8	3561767	SVO	DA_N	2	1	1
Lithuanian_2.8	382534	SOV	DA_N	2	1	1
Lithuanian_2.8	4709121	SVO	A_DN	1	2	1
Lithuanian_2.8	5440781	SVO	NDA_	2	3	1
Lithuanian_2.8	6122993	SVO	DA_N	2	1	1
Lithuanian_2.8	6537171	SOV	DA_N	2	1	1
Lithuanian_2.8	6656842	SVO	DA_N	2	1	1
Lithuanian_2.8	6890132	SVO	DA_N	2	1	1
Lithuanian_2.8	9868340	SOV	DA_N	2	1	1
Maltese_2.8	5515583	SVO	NA_D	1	2	1
Maltese_2.8	6308070	SOV	DA_N	2	1	1
Maltese_2.8	6829673	OSV	A_ND	2	1	1
Maltese_2.8	4134935	SOV	NA_D	1	2	1
Maltese_2.8	358829	OSV	A_ND	2	1	1
Maltese_2.8	5608871	OSV	DA_N	2	1	1
Maltese_2.8	1746347	OSV	A_DN	1	2	1
Maltese_2.8	1818275	OSV	A_DN	1	2	1
Maltese_2.8	4247383	SVO	DA_N	2	1	1
Maltese_2.8	5357916	OSV	A_ND	2	1	1
Maltese_2.8	6157852	SVO	A_ND	2	1	1
Maltese_2.8	6842379	OSV	A_DN	1	2	1
Maltese_2.8	7457157	SOV	A_ND	2	1	1
Maltese_2.8	7645073	SOV	DA_N	2	1	1
Maltese_2.8	8131360	SOV	A_DN	1	2	1
Maltese_2.8	8189262	SOV	A_ND	2	1	1
Maltese_2.8	8564283	OSV	A_ND	2	1	1
Maltese_2.8	9648365	SVO	DA_N	2	1	1
Maltese_2.8	9997714	SVO	DA_N	2	1	1
Manx_2.8	1101701	SOV	DNA_	3	2	1
Manx_2.8	2285203	OSV	AN_D	1	1	2
Manx_2.8	3868818	OSV	AD_N	1	1	2
Manx_2.8	4068457	OSV	NDA_	2	3	1
Manx_2.8	4751823	SOV	ADN_	2	1	3
Manx_2.8	491579	SOV	A_ND	2	1	1
Manx_2.8	4937801	OSV	DNA_	3	2	1
Manx_2.8	5553527	OSV	DA_N	2	1	1
Manx_2.8	5694982	OSV	DA_N	2	1	1
Manx_2.8	5729430	SVO	AN_D	1	1	2
Manx_2.8	6779992	OSV	DA_N	2	1	1
Manx_2.8	6956171	SOV	NA_D	1	2	1
Manx_2.8	7771172	OSV	A_ND	2	1	1
Manx_2.8	8474698	SVO	AN_D	1	1	2
Manx_2.8	9298989	OSV	DA_N	2	1	1
Mbya_Guarani_2.8	5230727	SVO	NDA_	2	3	1
Mbya_Guarani_2.8	6726104	SVO	DNA_	3	2	1
Mbya_Guarani_2.8	9862333	SOV	AND_	1	2	3
Mbya_Guarani_2.8	1803671	SVO	DA_N	2	1	1
Mbya_Guarani_2.8	2233022	SVO	A_DN	1	2	1
Mbya_Guarani_2.8	4003834	SVO	ADN_	2	1	3
Mbya_Guarani_2.8	3080166	SOV	ADN_	2	1	3
Mbya_Guarani_2.8	3596176	SVO	NA_D	1	2	1
Mbya_Guarani_2.8	4561945	SOV	NDA_	2	3	1
Mbya_Guarani_2.8	5856482	SVO	NAD_	1	3	2
Mbya_Guarani_2.8	5866954	SVO	ADN_	2	1	3
Mbya_Guarani_2.8	618076	SVO	ADN_	2	1	3
Mbya_Guarani_2.8	673769	SOV	AND_	1	2	3
Mbya_Guarani_2.8	759213	SVO	AND_	1	2	3
Mbya_Guarani_2.8	9253158	SOV	AD_N	1	1	2
Mbya_Guarani_2.8	942154	SVO	A_ND	2	1	1
Mbya_Guarani_2.8	9750968	SVO	A_DN	1	2	1
Mbya_Guarani_2.8	9876470	OSV	AND_	1	2	3
Naija_2.8	1484980	SVO	ADN_	2	1	3
Naija_2.8	229357	SVO	NDA_	2	3	1
Naija_2.8	2545410	SVO	NDA_	2	3	1
Naija_2.8	421658	SVO	NDA_	2	3	1
Naija_2.8	4507552	SVO	DAN_	3	1	2
Naija_2.8	4780262	SVO	DAN_	3	1	2
Naija_2.8	5235032	SVO	AN_D	1	1	2
Naija_2.8	9991022	SOV	DAN_	3	1	2
Naija_2.8	2161463	SVO	DAN_	3	1	2
Naija_2.8	2676247	SVO	DAN_	3	1	2
Naija_2.8	4585477	SVO	ADN_	2	1	3
Naija_2.8	6669523	SVO	DAN_	3	1	2
Naija_2.8	8060152	SVO	DAN_	3	1	2
Naija_2.8	9770212	SVO	DAN_	3	1	2
Naija_2.8	9840981	SVO	DAN_	3	1	2
Naija_2.8	6212257	SVO	NDA_	2	3	1
Naija_2.8	3638601	SVO	DAN_	3	1	2
Naija_2.8	4615217	SVO	DAN_	3	1	2
Naija_2.8	5173375	SVO	DAN_	3	1	2
Naija_2.8	2369889	SVO	NAD_	1	3	2
Naija_2.8	3210957	SVO	DA_N	2	1	1
Naija_2.8	3227092	SVO	NDA_	2	3	1
Naija_2.8	3525935	SVO	ADN_	2	1	3
Naija_2.8	4371135	SVO	NDA_	2	3	1
Naija_2.8	5030625	SVO	DA_N	2	1	1
Naija_2.8	5545476	SVO	NDA_	2	3	1
Naija_2.8	555011	SVO	NDA_	2	3	1
Naija_2.8	7455859	SVO	DNA_	3	2	1
Naija_2.8	8649753	SVO	NAD_	1	3	2
Naija_2.8	8752045	SVO	DA_N	2	1	1
Naija_2.8	9544901	SVO	DA_N	2	1	1
North_Sami_2.8	3223968	SOV	NAD_	1	3	2
North_Sami_2.8	6601783	SOV	DNA_	3	2	1
North_Sami_2.8	5128158	SVO	DNA_	3	2	1
North_Sami_2.8	5422897	SOV	NA_D	1	2	1
North_Sami_2.8	9982920	SVO	NA_D	1	2	1
North_Sami_2.8	9982939	SOV	NA_D	1	2	1
North_Sami_2.8	1302293	SVO	AD_N	1	1	2
North_Sami_2.8	3640714	SVO	A_DN	1	2	1
North_Sami_2.8	3729026	SOV	NAD_	1	3	2
North_Sami_2.8	4568903	SOV	NA_D	1	2	1
North_Sami_2.8	4650683	SVO	AD_N	1	1	2
North_Sami_2.8	4712739	SOV	NA_D	1	2	1
North_Sami_2.8	4830327	SOV	DNA_	3	2	1
North_Sami_2.8	6868748	SVO	NDA_	2	3	1
North_Sami_2.8	7812594	SOV	DNA_	3	2	1
North_Sami_2.8	8141084	SVO	AD_N	1	1	2
North_Sami_2.8	8224437	SVO	AD_N	1	1	2
Norwegian-NynorskLIA_2.8	1117616	OSV	NAD_	1	3	2
Norwegian-NynorskLIA_2.8	1849936	OSV	DA_N	2	1	1
Norwegian-NynorskLIA_2.8	2160727	SVO	A_ND	2	1	1
Norwegian-NynorskLIA_2.8	3414450	OSV	NA_D	1	2	1
Norwegian-NynorskLIA_2.8	3475585	SVO	NA_D	1	2	1
Norwegian-NynorskLIA_2.8	4478453	SVO	NA_D	1	2	1
Norwegian-NynorskLIA_2.8	4655863	SVO	NA_D	1	2	1
Norwegian-NynorskLIA_2.8	5515324	OSV	NA_D	1	2	1
Norwegian-NynorskLIA_2.8	5713618	OSV	A_DN	1	2	1
Norwegian-NynorskLIA_2.8	5858095	SVO	NA_D	1	2	1
Norwegian-NynorskLIA_2.8	6150072	SVO	A_ND	2	1	1
Norwegian-NynorskLIA_2.8	629356	OSV	A_DN	1	2	1
Norwegian-NynorskLIA_2.8	7347539	SVO	A_DN	1	2	1
Norwegian-NynorskLIA_2.8	8547306	SVO	NA_D	1	2	1
Norwegian-NynorskLIA_2.8	9471200	SVO	A_ND	2	1	1
Norwegian-NynorskLIA_2.8	9591217	SVO	A_ND	2	1	1
Norwegian-NynorskLIA_2.8	9716435	SVO	NA_D	1	2	1
Norwegian-NynorskLIA_2.8	9718682	OSV	NA_D	1	2	1
Norwegian-NynorskLIA_2.8	9829084	SVO	AN_D	1	1	2
Norwegian-NynorskLIA_2.8	9946481	SVO	A_ND	2	1	1
Norwegian_2.8	115358	SOV	ADN_	2	1	3
Norwegian_2.8	2499753	SVO	ADN_	2	1	3
Norwegian_2.8	3281959	SOV	ADN_	2	1	3
Norwegian_2.8	3426052	SVO	AND_	1	2	3
Norwegian_2.8	581333	SVO	ADN_	2	1	3
Norwegian_2.8	8311100	SOV	ADN_	2	1	3
Norwegian_2.8	8807879	SOV	ADN_	2	1	3
Norwegian_2.8	4040533	SVO	NAD_	1	3	2
Norwegian_2.8	572696	SVO	NAD_	1	3	2
Norwegian_2.8	9558796	SVO	NAD_	1	3	2
Norwegian_2.8	7754422	SVO	ADN_	2	1	3
Norwegian_2.8	9927407	SVO	ADN_	2	1	3
Norwegian_2.8	5571441	SVO	NAD_	1	3	2
Norwegian_2.8	6696155	SVO	NAD_	1	3	2
Norwegian_2.8	807944	SVO	NAD_	1	3	2
Norwegian_2.8	8309770	SVO	AD_N	1	1	2
Norwegian_2.8	1900461	SOV	AD_N	1	1	2
Norwegian_2.8	280263	SVO	NAD_	1	3	2
Norwegian_2.8	3173269	SVO	NAD_	1	3	2
Norwegian_2.8	4538636	SOV	ADN_	2	1	3
Norwegian_2.8	5691538	SVO	NAD_	1	3	2
Norwegian_2.8	6036502	SVO	NAD_	1	3	2
Norwegian_2.8	702644	SVO	NAD_	1	3	2
Norwegian_2.8	7267825	SVO	NAD_	1	3	2
Norwegian_2.8	7437558	SOV	NAD_	1	3	2
Norwegian_2.8	8691804	SOV	NAD_	1	3	2
Norwegian_2.8	9446002	SVO	NAD_	1	3	2
Old_Church_Slavonic_2.8	1323142	SOV	AD_N	1	1	2
Old_Church_Slavonic_2.8	2659442	SOV	ADN_	2	1	3
Old_Church_Slavonic_2.8	4842358	SOV	ADN_	2	1	3
Old_Church_Slavonic_2.8	6427421	SOV	AD_N	1	1	2
Old_Church_Slavonic_2.8	6972037	SVO	AD_N	1	1	2
Old_Church_Slavonic_2.8	9444030	SOV	AD_N	1	1	2
Old_Church_Slavonic_2.8	3276089	SOV	NDA_	2	3	1
Old_Church_Slavonic_2.8	731720	SOV	ADN_	2	1	3
Old_Church_Slavonic_2.8	8821432	SOV	AD_N	1	1	2
Old_Church_Slavonic_2.8	1944525	SVO	DA_N	2	1	1
Old_Church_Slavonic_2.8	1953502	SOV	DAN_	3	1	2
Old_Church_Slavonic_2.8	2877727	SOV	DAN_	3	1	2
Old_Church_Slavonic_2.8	3030232	SOV	DA_N	2	1	1
Old_Church_Slavonic_2.8	3686228	SOV	DAN_	3	1	2
Old_Church_Slavonic_2.8	9572905	SOV	NDA_	2	3	1
Old_Church_Slavonic_2.8	1100801	SOV	DAN_	3	1	2
Old_Church_Slavonic_2.8	1145585	OSV	NDA_	2	3	1
Old_Church_Slavonic_2.8	2176717	SOV	DA_N	2	1	1
Old_Church_Slavonic_2.8	4426355	SOV	DAN_	3	1	2
Old_Church_Slavonic_2.8	525452	SOV	DA_N	2	1	1
Old_Church_Slavonic_2.8	7827427	SOV	DAN_	3	1	2
Old_Church_Slavonic_2.8	8260656	SOV	NDA_	2	3	1
Old_Church_Slavonic_2.8	8296918	SVO	DAN_	3	1	2
Old_Church_Slavonic_2.8	8374010	SVO	NAD_	1	3	2
Old_Church_Slavonic_2.8	9475637	SOV	DAN_	3	1	2
Old_Church_Slavonic_2.8	9497701	SVO	DA_N	2	1	1
Old_Church_Slavonic_2.8	984664	SOV	DAN_	3	1	2
Old_East_Slavic_2.8	2663116	SVO	DA_N	2	1	1
Old_East_Slavic_2.8	407972	SOV	DA_N	2	1	1
Old_East_Slavic_2.8	5149539	SOV	AN_D	1	1	2
Old_East_Slavic_2.8	5926316	SOV	DNA_	3	2	1
Old_East_Slavic_2.8	7187236	SOV	DA_N	2	1	1
Old_East_Slavic_2.8	7548390	SOV	DNA_	3	2	1
Old_East_Slavic_2.8	8113165	SVO	DA_N	2	1	1
Old_East_Slavic_2.8	8302519	SOV	DAN_	3	1	2
Old_East_Slavic_2.8	8959568	SOV	DNA_	3	2	1
Old_East_Slavic_2.8	9287081	SOV	DNA_	3	2	1
Old_East_Slavic_2.8	9672633	SVO	DAN_	3	1	2
Old_French_2.8	3710599	SOV	AN_D	1	1	2
Old_French_2.8	152589	OSV	DAN_	3	1	2
Old_French_2.8	3852831	OSV	DAN_	3	1	2
Old_French_2.8	6281815	SOV	ADN_	2	1	3
Old_French_2.8	6832824	SOV	ADN_	2	1	3
Old_French_2.8	8817503	SOV	AN_D	1	1	2
Old_French_2.8	9305416	OSV	AN_D	1	1	2
Old_French_2.8	430683	OSV	DAN_	3	1	2
Old_French_2.8	1096441	SVO	DAN_	3	1	2
Old_French_2.8	1519136	OSV	AN_D	1	1	2
Old_French_2.8	17786	SOV	ADN_	2	1	3
Old_French_2.8	1955167	SVO	DNA_	3	2	1
Old_French_2.8	4082696	SOV	ADN_	2	1	3
Old_French_2.8	4379858	SOV	DAN_	3	1	2
Old_French_2.8	5061825	SVO	DAN_	3	1	2
Old_French_2.8	5234064	OSV	DAN_	3	1	2
Old_French_2.8	7200804	SOV	DAN_	3	1	2
Old_French_2.8	9154423	OSV	DAN_	3	1	2
Old_Russian_2.8	2079557	SOV	NAD_	1	3	2
Old_Russian_2.8	4254232	SOV	NAD_	1	3	2
Old_Russian_2.8	4992541	SOV	A_DN	1	2	1
Old_Russian_2.8	145251	SOV	DNA_	3	2	1
Old_Russian_2.8	5804793	SOV	AN_D	1	1	2
Old_Russian_2.8	8497887	SOV	A_ND	2	1	1
Old_Russian_2.8	8540095	SOV	AN_D	1	1	2
Old_Russian_2.8	2141894	SOV	DNA_	3	2	1
PARTITION-Ancient_Greek_archaic	1551489	SOV	NA_D	1	2	1
PARTITION-Ancient_Greek_archaic	23548	SOV	AD_N	1	1	2
PARTITION-Ancient_Greek_archaic	2364609	SVO	AN_D	1	1	2
PARTITION-Ancient_Greek_archaic	4460521	SVO	AN_D	1	1	2
PARTITION-Ancient_Greek_archaic	4577790	SVO	AN_D	1	1	2
PARTITION-Ancient_Greek_archaic	4767206	SVO	AN_D	1	1	2
PARTITION-Ancient_Greek_archaic	4938082	SVO	AN_D	1	1	2
PARTITION-Ancient_Greek_archaic	5567002	SVO	NA_D	1	2	1
PARTITION-Ancient_Greek_archaic	6015930	SVO	AN_D	1	1	2
PARTITION-Ancient_Greek_archaic	744412	SVO	NA_D	1	2	1
PARTITION-Ancient_Greek_archaic	7523333	SVO	AN_D	1	1	2
PARTITION-Ancient_Greek_archaic	75379	SVO	AN_D	1	1	2
PARTITION-Ancient_Greek_archaic	7823169	SVO	NA_D	1	2	1
PARTITION-Ancient_Greek_classical	1342654	SVO	NA_D	1	2	1
PARTITION-Ancient_Greek_classical	1495055	SVO	NA_D	1	2	1
PARTITION-Ancient_Greek_classical	2852831	SVO	NA_D	1	2	1
PARTITION-Ancient_Greek_classical	3386825	SVO	NA_D	1	2	1
PARTITION-Ancient_Greek_classical	4189390	SOV	NAD_	1	3	2
PARTITION-Ancient_Greek_classical	5226618	SVO	NAD_	1	3	2
PARTITION-Ancient_Greek_classical	5454640	SVO	NAD_	1	3	2
PARTITION-Ancient_Greek_classical	5728022	SVO	NAD_	1	3	2
PARTITION-Ancient_Greek_classical	6609601	SVO	NA_D	1	2	1
PARTITION-Ancient_Greek_classical	7182415	SVO	NAD_	1	3	2
PARTITION-Ancient_Greek_classical	7246226	SVO	NA_D	1	2	1
PARTITION-Ancient_Greek_classical	7797170	SVO	NAD_	1	3	2
PARTITION-Ancient_Greek_classical	817629	SOV	A_DN	1	2	1
PARTITION-Ancient_Greek_classical	9634667	SOV	NAD_	1	3	2
PARTITION-Ancient_Greek_classical	9828895	SOV	AD_N	1	1	2
PARTITION-Ancient_Greek_koine	1442026	SOV	AD_N	1	1	2
PARTITION-Ancient_Greek_koine	2325746	SVO	AN_D	1	1	2
PARTITION-Ancient_Greek_koine	346690	SOV	AD_N	1	1	2
PARTITION-Ancient_Greek_koine	5885284	SOV	ADN_	2	1	3
PARTITION-Ancient_Greek_koine	6695461	SOV	ADN_	2	1	3
PARTITION-Ancient_Greek_koine	6791682	SVO	AN_D	1	1	2
PARTITION-Ancient_Greek_koine	7241544	SVO	AN_D	1	1	2
PARTITION-Ancient_Greek_koine	7438051	SVO	AN_D	1	1	2
PARTITION-Ancient_Greek_koine	7568824	SVO	AN_D	1	1	2
PARTITION-Icelandic_early	1286640	SVO	ADN_	2	1	3
PARTITION-Icelandic_early	1547600	OSV	ADN_	2	1	3
PARTITION-Icelandic_early	2140255	SVO	AD_N	1	1	2
PARTITION-Icelandic_early	2161003	OSV	AD_N	1	1	2
PARTITION-Icelandic_early	3821098	OSV	AD_N	1	1	2
PARTITION-Icelandic_early	4705183	SVO	ADN_	2	1	3
PARTITION-Icelandic_early	5736653	OSV	AD_N	1	1	2
PARTITION-Icelandic_early	5928730	SVO	AD_N	1	1	2
PARTITION-Icelandic_early	6082009	SVO	ADN_	2	1	3
PARTITION-Icelandic_early	618692	OSV	AD_N	1	1	2
PARTITION-Icelandic_early	6454491	SVO	ADN_	2	1	3
PARTITION-Icelandic_early	8923810	SVO	ADN_	2	1	3
PARTITION-Icelandic_early	9433903	SVO	ADN_	2	1	3
PARTITION-Icelandic_early	9931184	OSV	AD_N	1	1	2
PARTITION-Icelandic_middle	1360008	SVO	ADN_	2	1	3
PARTITION-Icelandic_middle	2076828	SVO	DNA_	3	2	1
PARTITION-Icelandic_middle	3785761	SVO	AN_D	1	1	2
PARTITION-Icelandic_middle	4086604	OSV	AN_D	1	1	2
PARTITION-Icelandic_middle	502899	SVO	AN_D	1	1	2
PARTITION-Icelandic_middle	5090403	SVO	ADN_	2	1	3
PARTITION-Icelandic_middle	5092485	SVO	DAN_	3	1	2
PARTITION-Icelandic_middle	6648952	OSV	AN_D	1	1	2
PARTITION-Icelandic_middle	6652719	SVO	ADN_	2	1	3
PARTITION-Icelandic_middle	7841335	SVO	AN_D	1	1	2
PARTITION-Icelandic_middle	8337603	OSV	AN_D	1	1	2
PARTITION-Icelandic_middle	970244	SVO	AN_D	1	1	2
PARTITION-Icelandic_middle	9926946	OSV	ADN_	2	1	3
PARTITION-Icelandic_modern	2040078	SVO	NDA_	2	3	1
PARTITION-Icelandic_modern	3105484	SVO	NAD_	1	3	2
PARTITION-Icelandic_modern	5285422	SVO	NDA_	2	3	1
PARTITION-Icelandic_modern	5543127	SVO	NAD_	1	3	2
PARTITION-Icelandic_modern	6415987	SVO	NDA_	2	3	1
PARTITION-Icelandic_modern	644390	SVO	NAD_	1	3	2
PARTITION-Icelandic_modern	6871212	SVO	NDA_	2	3	1
PARTITION-Icelandic_modern	7118409	SVO	NDA_	2	3	1
PARTITION-Icelandic_modern	8455819	SVO	NDA_	2	3	1
PARTITION-Icelandic_modern	8697016	SVO	NDA_	2	3	1
PARTITION-Icelandic_modern	9061369	SVO	NDA_	2	3	1
Persian_2.8	4379461	SOV	DNA_	3	2	1
Persian_2.8	4401562	SOV	DNA_	3	2	1
Persian_2.8	4849711	SOV	DNA_	3	2	1
Persian_2.8	5455048	OSV	DA_N	2	1	1
Persian_2.8	6483325	SOV	DNA_	3	2	1
Persian_2.8	7414188	SOV	DNA_	3	2	1
Persian_2.8	9392828	SOV	DNA_	3	2	1
Persian_2.8	972115	SOV	DNA_	3	2	1
Persian_2.8	9982248	SOV	DNA_	3	2	1
Persian_2.8	1755189	SOV	DNA_	3	2	1
Persian_2.8	4474461	SOV	DNA_	3	2	1
Persian_2.8	5588118	SOV	A_ND	2	1	1
Persian_2.8	7432471	SOV	NA_D	1	2	1
Persian_2.8	3285086	SOV	DNA_	3	2	1
Persian_2.8	4922373	SOV	DNA_	3	2	1
Persian_2.8	7321436	SOV	DNA_	3	2	1
Persian_2.8	4841849	SOV	DNA_	3	2	1
Persian_2.8	2893998	SOV	DAN_	3	1	2
Persian_2.8	6490774	SOV	DAN_	3	1	2
Persian_2.8	7659973	SOV	DNA_	3	2	1
Persian_2.8	1952936	SOV	DAN_	3	1	2
Persian_2.8	2269172	SOV	DAN_	3	1	2
Persian_2.8	2332777	SOV	DNA_	3	2	1
Persian_2.8	2836095	OSV	DA_N	2	1	1
Persian_2.8	4132810	OSV	DA_N	2	1	1
Persian_2.8	4213825	SOV	DAN_	3	1	2
Persian_2.8	4902649	SOV	DNA_	3	2	1
Persian_2.8	5014013	SVO	DNA_	3	2	1
Persian_2.8	5254145	OSV	DA_N	2	1	1
Persian_2.8	6052115	OSV	DA_N	2	1	1
Persian_2.8	6145044	OSV	DA_N	2	1	1
Persian_2.8	6765410	SOV	DNA_	3	2	1
Persian_2.8	7542527	SOV	DAN_	3	1	2
Persian_2.8	8161713	SOV	DNA_	3	2	1
Persian_2.8	9910336	SOV	DNA_	3	2	1
Polish_2.8	4266387	OSV	DAN_	3	1	2
Polish_2.8	4341923	SOV	DAN_	3	1	2
Polish_2.8	4723424	SOV	DAN_	3	1	2
Polish_2.8	5830742	SOV	DAN_	3	1	2
Polish_2.8	950285	SOV	A_ND	2	1	1
Polish_2.8	5541413	OSV	DAN_	3	1	2
Polish_2.8	969482	SOV	DAN_	3	1	2
Polish_2.8	1243139	SOV	DAN_	3	1	2
Polish_2.8	4360796	SOV	AND_	1	2	3
Polish_2.8	7416593	SOV	DAN_	3	1	2
Polish_2.8	2422316	SOV	AD_N	1	1	2
Polish_2.8	3353636	SOV	DAN_	3	1	2
Polish_2.8	4155092	SOV	DAN_	3	1	2
Polish_2.8	4867051	SOV	DAN_	3	1	2
Polish_2.8	51726	SOV	DAN_	3	1	2
Polish_2.8	5494551	SOV	DAN_	3	1	2
Polish_2.8	6354406	SOV	DAN_	3	1	2
Polish_2.8	691112	OSV	A_ND	2	1	1
Polish_2.8	6929913	SOV	DAN_	3	1	2
Portuguese_2.8	1603602	SVO	NA_D	1	2	1
Portuguese_2.8	1668074	OSV	NA_D	1	2	1
Portuguese_2.8	1785122	OSV	NA_D	1	2	1
Portuguese_2.8	2647572	OSV	NA_D	1	2	1
Portuguese_2.8	3048024	SOV	A_DN	1	2	1
Portuguese_2.8	5075307	OSV	NA_D	1	2	1
Portuguese_2.8	5385963	OSV	NA_D	1	2	1
Portuguese_2.8	5681665	OSV	NA_D	1	2	1
Portuguese_2.8	6441704	SOV	A_ND	2	1	1
Portuguese_2.8	9590461	OSV	NA_D	1	2	1
Portuguese_2.8	9782180	OSV	NA_D	1	2	1
Portuguese_2.8	1884212	OSV	NA_D	1	2	1
Portuguese_2.8	6169316	SOV	NA_D	1	2	1
Portuguese_2.8	7144843	SOV	A_ND	2	1	1
Portuguese_2.8	8330593	OSV	NA_D	1	2	1
Portuguese_2.8	7625790	OSV	NA_D	1	2	1
Portuguese_2.8	5799867	OSV	NA_D	1	2	1
Portuguese_2.8	7500503	SOV	A_ND	2	1	1
Portuguese_2.8	8376040	SOV	NA_D	1	2	1
Portuguese_2.8	2129854	SOV	A_DN	1	2	1
Portuguese_2.8	2206680	OSV	NA_D	1	2	1
Portuguese_2.8	3016852	SOV	A_DN	1	2	1
Portuguese_2.8	4663644	OSV	NA_D	1	2	1
Portuguese_2.8	6107557	OSV	A_ND	2	1	1
Portuguese_2.8	6335022	OSV	A_ND	2	1	1
Portuguese_2.8	6707882	OSV	NA_D	1	2	1
Portuguese_2.8	7217157	OSV	NA_D	1	2	1
Portuguese_2.8	7413240	SOV	A_ND	2	1	1
Portuguese_2.8	816286	OSV	NA_D	1	2	1
Portuguese_2.8	848943	OSV	NA_D	1	2	1
Portuguese_2.8	9824083	SOV	A_ND	2	1	1
Romanian_2.8	135536	SOV	NA_D	1	2	1
Romanian_2.8	1961324	SOV	NA_D	1	2	1
Romanian_2.8	2387906	SOV	NA_D	1	2	1
Romanian_2.8	4950671	SOV	NA_D	1	2	1
Romanian_2.8	5931599	SOV	NA_D	1	2	1
Romanian_2.8	1390284	SOV	NA_D	1	2	1
Romanian_2.8	412100	SOV	NA_D	1	2	1
Romanian_2.8	4958687	SVO	NA_D	1	2	1
Romanian_2.8	5118524	SOV	NA_D	1	2	1
Romanian_2.8	7976977	SOV	A_ND	2	1	1
Romanian_2.8	1212990	SOV	NA_D	1	2	1
Romanian_2.8	3796419	SOV	NA_D	1	2	1
Romanian_2.8	2830999	SOV	NA_D	1	2	1
Romanian_2.8	3520936	SOV	NA_D	1	2	1
Romanian_2.8	3668504	SOV	NA_D	1	2	1
Romanian_2.8	4472952	SOV	NA_D	1	2	1
Romanian_2.8	559968	SOV	NA_D	1	2	1
Romanian_2.8	6210326	OSV	ADN_	2	1	3
Romanian_2.8	6215467	SVO	NA_D	1	2	1
Romanian_2.8	8468647	SOV	NA_D	1	2	1
Romanian_2.8	8486005	SOV	ADN_	2	1	3
Romanian_2.8	9031707	SVO	DNA_	3	2	1
Romanian_2.8	9291251	SOV	NA_D	1	2	1
Romanian_2.8	9830159	SOV	A_ND	2	1	1
Russian_2.8	1600714	OSV	NAD_	1	3	2
Russian_2.8	207310	SVO	ADN_	2	1	3
Russian_2.8	2517893	SVO	DNA_	3	2	1
Russian_2.8	5494953	SVO	ADN_	2	1	3
Russian_2.8	5495325	SVO	DNA_	3	2	1
Russian_2.8	6621698	SVO	NAD_	1	3	2
Russian_2.8	6999732	SVO	ADN_	2	1	3
Russian_2.8	7136985	SVO	NDA_	2	3	1
Russian_2.8	1740817	SVO	DNA_	3	2	1
Russian_2.8	4210440	SVO	DAN_	3	1	2
Russian_2.8	4852034	SVO	DNA_	3	2	1
Russian_2.8	4531343	SVO	DNA_	3	2	1
Russian_2.8	661060	SVO	DAN_	3	1	2
Russian_2.8	1872511	OSV	NAD_	1	3	2
Russian_2.8	2268314	SVO	DNA_	3	2	1
Russian_2.8	2679289	SVO	DNA_	3	2	1
Russian_2.8	2699269	OSV	DNA_	3	2	1
Russian_2.8	3535952	SVO	DNA_	3	2	1
Russian_2.8	3891851	SVO	ADN_	2	1	3
Russian_2.8	5017900	SVO	DNA_	3	2	1
Russian_2.8	503801	OSV	NAD_	1	3	2
Russian_2.8	5779171	SVO	DNA_	3	2	1
Russian_2.8	6856546	SVO	DNA_	3	2	1
Russian_2.8	8952208	SVO	DNA_	3	2	1
Russian_2.8	9225094	SVO	DNA_	3	2	1
Russian_2.8	9864542	SVO	DNA_	3	2	1
Sanskrit_2.8	1283571	OSV	NDA_	2	3	1
Sanskrit_2.8	2528397	SOV	AD_N	1	1	2
Sanskrit_2.8	3022870	SVO	AD_N	1	1	2
Sanskrit_2.8	6456545	SVO	A_DN	1	2	1
Sanskrit_2.8	1213984	OSV	A_DN	1	2	1
Sanskrit_2.8	1307710	SVO	A_DN	1	2	1
Sanskrit_2.8	1310970	SOV	A_DN	1	2	1
Sanskrit_2.8	3000100	SVO	NAD_	1	3	2
Sanskrit_2.8	4295059	SOV	AD_N	1	1	2
Sanskrit_2.8	5201555	SVO	A_DN	1	2	1
Sanskrit_2.8	555222	SOV	A_DN	1	2	1
Sanskrit_2.8	5671318	SVO	AD_N	1	1	2
Sanskrit_2.8	5996770	SOV	AD_N	1	1	2
Sanskrit_2.8	7264252	SVO	NA_D	1	2	1
Sanskrit_2.8	7466927	SVO	NAD_	1	3	2
Sanskrit_2.8	8571912	SVO	NAD_	1	3	2
Sanskrit_2.8	8653509	SOV	NA_D	1	2	1
Sanskrit_2.8	9655966	OSV	AD_N	1	1	2
Scottish_Gaelic_2.8	1601029	OSV	AN_D	1	1	2
Scottish_Gaelic_2.8	194685	SOV	NA_D	1	2	1
Scottish_Gaelic_2.8	2548094	SOV	AN_D	1	1	2
Scottish_Gaelic_2.8	3951429	OSV	AN_D	1	1	2
Scottish_Gaelic_2.8	4472992	OSV	DA_N	2	1	1
Scottish_Gaelic_2.8	5417591	OSV	AN_D	1	1	2
Scottish_Gaelic_2.8	8062633	OSV	DNA_	3	2	1
Scottish_Gaelic_2.8	8606812	OSV	A_ND	2	1	1
Scottish_Gaelic_2.8	9551766	SVO	AN_D	1	1	2
Scottish_Gaelic_2.8	1700453	SVO	A_DN	1	2	1
Scottish_Gaelic_2.8	5485148	OSV	AN_D	1	1	2
Scottish_Gaelic_2.8	1075504	SOV	AN_D	1	1	2
Scottish_Gaelic_2.8	8465128	OSV	AN_D	1	1	2
Scottish_Gaelic_2.8	6149117	SVO	NA_D	1	2	1
Scottish_Gaelic_2.8	8063519	OSV	NDA_	2	3	1
Scottish_Gaelic_2.8	9135840	OSV	AN_D	1	1	2
Scottish_Gaelic_2.8	288655	OSV	A_ND	2	1	1
Scottish_Gaelic_2.8	2920243	SVO	NA_D	1	2	1
Scottish_Gaelic_2.8	3288668	OSV	A_ND	2	1	1
Scottish_Gaelic_2.8	4293853	OSV	A_ND	2	1	1
Scottish_Gaelic_2.8	4418278	OSV	A_DN	1	2	1
Scottish_Gaelic_2.8	5288131	OSV	A_ND	2	1	1
Scottish_Gaelic_2.8	6033901	OSV	A_ND	2	1	1
Scottish_Gaelic_2.8	6382592	SVO	A_DN	1	2	1
Scottish_Gaelic_2.8	8567438	OSV	A_ND	2	1	1
Scottish_Gaelic_2.8	9002674	OSV	A_ND	2	1	1
Scottish_Gaelic_2.8	9242228	OSV	NA_D	1	2	1
Scottish_Gaelic_2.8	9497153	OSV	NA_D	1	2	1
Serbian_2.8	1104762	SOV	NAD_	1	3	2
Serbian_2.8	1284236	SOV	DNA_	3	2	1
Serbian_2.8	1440472	SOV	DNA_	3	2	1
Serbian_2.8	2659639	SOV	DNA_	3	2	1
Serbian_2.8	3372033	SOV	DNA_	3	2	1
Serbian_2.8	6542675	OSV	A_ND	2	1	1
Serbian_2.8	2366381	SOV	NA_D	1	2	1
Serbian_2.8	534494	SVO	NA_D	1	2	1
Serbian_2.8	1369142	OSV	DNA_	3	2	1
Serbian_2.8	4535197	SOV	A_DN	1	2	1
Serbian_2.8	5047851	OSV	A_ND	2	1	1
Serbian_2.8	6616987	OSV	A_ND	2	1	1
Serbian_2.8	1010109	SOV	NAD_	1	3	2
Serbian_2.8	1123452	SOV	DA_N	2	1	1
Serbian_2.8	1761257	OSV	A_ND	2	1	1
Serbian_2.8	2124199	OSV	AD_N	1	1	2
Serbian_2.8	2335622	SOV	NA_D	1	2	1
Serbian_2.8	2411852	SOV	AD_N	1	1	2
Serbian_2.8	3909314	SOV	A_ND	2	1	1
Serbian_2.8	589930	SOV	DNA_	3	2	1
Serbian_2.8	7385915	OSV	DNA_	3	2	1
Serbian_2.8	7972558	SOV	NAD_	1	3	2
Serbian_2.8	8218082	SOV	NA_D	1	2	1
Slovak_2.8	1091702	OSV	DA_N	2	1	1
Slovak_2.8	1794356	OSV	NA_D	1	2	1
Slovak_2.8	3046137	OSV	DNA_	3	2	1
Slovak_2.8	3660951	OSV	DA_N	2	1	1
Slovak_2.8	6021439	OSV	DA_N	2	1	1
Slovak_2.8	6428408	OSV	NA_D	1	2	1
Slovak_2.8	7536341	SVO	NDA_	2	3	1
Slovak_2.8	109591	SVO	NA_D	1	2	1
Slovak_2.8	1832872	OSV	NA_D	1	2	1
Slovak_2.8	24549	SVO	DA_N	2	1	1
Slovak_2.8	2711875	SOV	NA_D	1	2	1
Slovak_2.8	3516325	OSV	NA_D	1	2	1
Slovak_2.8	38818	OSV	NA_D	1	2	1
Slovak_2.8	8108421	SOV	NDA_	2	3	1
Slovak_2.8	3284110	OSV	AN_D	1	1	2
Slovak_2.8	3298278	SOV	AN_D	1	1	2
Slovak_2.8	4269495	SVO	AN_D	1	1	2
Slovak_2.8	4572450	SOV	AND_	1	2	3
Slovak_2.8	4839554	SOV	DAN_	3	1	2
Slovak_2.8	5742613	SOV	A_ND	2	1	1
Slovak_2.8	6783556	OSV	AN_D	1	1	2
Slovak_2.8	6807772	SOV	A_DN	1	2	1
Slovak_2.8	7161985	SVO	AN_D	1	1	2
Slovak_2.8	7494512	SOV	AN_D	1	1	2
Slovak_2.8	758118	SOV	AN_D	1	1	2
Slovak_2.8	9969902	SOV	AN_D	1	1	2
Slovenian-SST_2.8	1198100	OSV	A_DN	1	2	1
Slovenian-SST_2.8	1443151	SOV	A_DN	1	2	1
Slovenian-SST_2.8	1683850	SOV	NDA_	2	3	1
Slovenian-SST_2.8	2646010	SOV	A_DN	1	2	1
Slovenian-SST_2.8	2800027	SVO	DA_N	2	1	1
Slovenian-SST_2.8	3476468	SOV	DA_N	2	1	1
Slovenian-SST_2.8	4591913	OSV	A_DN	1	2	1
Slovenian-SST_2.8	5015139	OSV	NDA_	2	3	1
Slovenian-SST_2.8	5083157	SVO	DA_N	2	1	1
Slovenian-SST_2.8	5591571	SOV	DA_N	2	1	1
Slovenian-SST_2.8	616241	SVO	DA_N	2	1	1
Slovenian-SST_2.8	636294	SVO	NA_D	1	2	1
Slovenian-SST_2.8	6944159	SOV	NA_D	1	2	1
Slovenian-SST_2.8	7325234	SOV	A_DN	1	2	1
Slovenian-SST_2.8	8897595	SVO	DA_N	2	1	1
Slovenian-SST_2.8	8943201	SOV	DA_N	2	1	1
Slovenian-SST_2.8	9357773	SVO	AN_D	1	1	2
Slovenian-SST_2.8	9435145	OSV	NA_D	1	2	1
Slovenian-SST_2.8	9599551	SVO	DA_N	2	1	1
Slovenian-SST_2.8	9616210	SOV	DA_N	2	1	1
Slovenian_2.8	2791553	SOV	A_ND	2	1	1
Slovenian_2.8	3043954	OSV	AN_D	1	1	2
Slovenian_2.8	3700497	SOV	AN_D	1	1	2
Slovenian_2.8	4297760	SOV	AN_D	1	1	2
Slovenian_2.8	4300980	OSV	DA_N	2	1	1
Slovenian_2.8	4550511	SOV	AN_D	1	1	2
Slovenian_2.8	5103532	OSV	AN_D	1	1	2
Slovenian_2.8	8497572	SOV	A_ND	2	1	1
Slovenian_2.8	9947701	OSV	DNA_	3	2	1
Slovenian_2.8	5114794	SOV	AN_D	1	1	2
Slovenian_2.8	1135925	OSV	NDA_	2	3	1
Slovenian_2.8	1555012	SOV	NA_D	1	2	1
Slovenian_2.8	1587260	OSV	DA_N	2	1	1
Slovenian_2.8	1828934	SOV	DA_N	2	1	1
Slovenian_2.8	2346376	SOV	NDA_	2	3	1
Slovenian_2.8	3064110	SOV	NA_D	1	2	1
Slovenian_2.8	3081034	OSV	NA_D	1	2	1
Slovenian_2.8	3222926	SOV	AN_D	1	1	2
Slovenian_2.8	3271077	SOV	NA_D	1	2	1
Slovenian_2.8	4184848	OSV	DNA_	3	2	1
Slovenian_2.8	6154368	SOV	NDA_	2	3	1
Slovenian_2.8	62552	SOV	NA_D	1	2	1
Slovenian_2.8	6797709	SVO	A_ND	2	1	1
Slovenian_2.8	8351436	SOV	AN_D	1	1	2
Slovenian_2.8	8466619	SOV	NDA_	2	3	1
Slovenian_2.8	9566338	SOV	NA_D	1	2	1
Spanish_2.8	3346275	SOV	NA_D	1	2	1
Spanish_2.8	4858995	SOV	A_DN	1	2	1
Spanish_2.8	489920	SOV	NA_D	1	2	1
Spanish_2.8	5434769	SOV	NAD_	1	3	2
Spanish_2.8	5496887	SOV	NA_D	1	2	1
Spanish_2.8	6631213	SOV	NA_D	1	2	1
Spanish_2.8	7904478	OSV	A_DN	1	2	1
Spanish_2.8	7942676	SOV	NA_D	1	2	1
Spanish_2.8	8964033	SOV	A_DN	1	2	1
Spanish_2.8	9140909	SOV	NA_D	1	2	1
Spanish_2.8	2638298	SOV	NA_D	1	2	1
Spanish_2.8	3426695	SOV	NA_D	1	2	1
Spanish_2.8	6861544	SOV	NA_D	1	2	1
Spanish_2.8	8497296	SOV	NA_D	1	2	1
Spanish_2.8	986598	SOV	A_ND	2	1	1
Spanish_2.8	274235	SOV	NA_D	1	2	1
Spanish_2.8	7078942	SOV	NA_D	1	2	1
Spanish_2.8	8965795	SOV	NA_D	1	2	1
Spanish_2.8	9930435	SOV	NA_D	1	2	1
Spanish_2.8	1798288	SOV	NA_D	1	2	1
Spanish_2.8	2273420	SOV	NA_D	1	2	1
Spanish_2.8	9219172	SOV	NA_D	1	2	1
Spanish_2.8	1659140	SOV	NA_D	1	2	1
Spanish_2.8	2368493	SOV	NA_D	1	2	1
Spanish_2.8	2430884	SOV	A_ND	2	1	1
Spanish_2.8	3025598	SOV	NA_D	1	2	1
Spanish_2.8	3702492	SOV	NA_D	1	2	1
Spanish_2.8	4815856	SOV	NA_D	1	2	1
Spanish_2.8	5026517	SOV	NA_D	1	2	1
Spanish_2.8	5265993	SOV	AND_	1	2	3
Spanish_2.8	5765018	SOV	AND_	1	2	3
Spanish_2.8	7160652	SOV	NA_D	1	2	1
Spanish_2.8	9263171	OSV	AND_	1	2	3
Swedish_2.8	1723976	OSV	AND_	1	2	3
Swedish_2.8	2129554	SVO	AN_D	1	1	2
Swedish_2.8	220284	SVO	ADN_	2	1	3
Swedish_2.8	2628983	SVO	AN_D	1	1	2
Swedish_2.8	5655130	SVO	ADN_	2	1	3
Swedish_2.8	5871411	OSV	ADN_	2	1	3
Swedish_2.8	5924061	OSV	NAD_	1	3	2
Swedish_2.8	9560096	SVO	NAD_	1	3	2
Swedish_2.8	2530346	SVO	NAD_	1	3	2
Swedish_2.8	946924	SOV	NAD_	1	3	2
Swedish_2.8	6146909	SVO	NDA_	2	3	1
Swedish_2.8	7749374	SVO	NDA_	2	3	1
Swedish_2.8	2795789	SVO	AND_	1	2	3
Swedish_2.8	2880654	OSV	ADN_	2	1	3
Swedish_2.8	317572	SVO	AND_	1	2	3
Swedish_2.8	384870	SVO	NDA_	2	3	1
Swedish_2.8	4009449	SVO	DA_N	2	1	1
Swedish_2.8	4546299	SVO	NAD_	1	3	2
Swedish_2.8	4578585	OSV	AND_	1	2	3
Swedish_2.8	4934982	SVO	AND_	1	2	3
Swedish_2.8	5618585	SOV	NAD_	1	3	2
Swedish_2.8	6024421	SVO	AND_	1	2	3
Swedish_2.8	615091	SVO	DA_N	2	1	1
Swedish_2.8	7437953	OSV	NDA_	2	3	1
Swedish_2.8	840180	SVO	NDA_	2	3	1
Swedish_2.8	9436112	SVO	AD_N	1	1	2
Tamil_2.8	146844	SOV	AND_	1	2	3
Tamil_2.8	1606695	SVO	NAD_	1	3	2
Tamil_2.8	2284410	SOV	DAN_	3	1	2
Tamil_2.8	2474589	SOV	ADN_	2	1	3
Tamil_2.8	2772649	OSV	NAD_	1	3	2
Tamil_2.8	3769350	SOV	A_ND	2	1	1
Tamil_2.8	3832439	SOV	DAN_	3	1	2
Tamil_2.8	3924127	SOV	DNA_	3	2	1
Tamil_2.8	3997946	SOV	ADN_	2	1	3
Tamil_2.8	4345562	SOV	NAD_	1	3	2
Tamil_2.8	4487834	OSV	NAD_	1	3	2
Tamil_2.8	4656184	SOV	DNA_	3	2	1
Tamil_2.8	4866564	OSV	DNA_	3	2	1
Tamil_2.8	5710857	SOV	NAD_	1	3	2
Tamil_2.8	6207989	SOV	AN_D	1	1	2
Tamil_2.8	624889	SOV	NAD_	1	3	2
Tamil_2.8	713233	SOV	AND_	1	2	3
Tamil_2.8	7360741	OSV	A_DN	1	2	1
Tamil_2.8	7481893	SOV	AND_	1	2	3
Tamil_2.8	8094663	SOV	DNA_	3	2	1
Tamil_2.8	8313411	SOV	AND_	1	2	3
Tamil_2.8	8920198	SOV	DNA_	3	2	1
Tamil_2.8	921871	SOV	AN_D	1	1	2
Tamil_2.8	9497880	SOV	AN_D	1	1	2
Tamil_2.8	9690442	OSV	DAN_	3	1	2
Thai_2.8	2767308	OSV	DNA_	3	2	1
Thai_2.8	2228866	SVO	DNA_	3	2	1
Thai_2.8	7845241	SOV	DAN_	3	1	2
Thai_2.8	1591062	OSV	A_ND	2	1	1
Thai_2.8	1795003	OSV	A_ND	2	1	1
Thai_2.8	219390	SVO	DAN_	3	1	2
Thai_2.8	2225293	OSV	DAN_	3	1	2
Thai_2.8	2378916	SOV	DAN_	3	1	2
Thai_2.8	3463771	OSV	A_DN	1	2	1
Thai_2.8	4665920	SOV	A_ND	2	1	1
Thai_2.8	5231236	OSV	A_ND	2	1	1
Thai_2.8	6152268	OSV	DNA_	3	2	1
Thai_2.8	7766968	SOV	DA_N	2	1	1
Thai_2.8	8455187	OSV	DAN_	3	1	2
Thai_2.8	9792142	SOV	A_ND	2	1	1
Thai_2.8	9831524	OSV	A_ND	2	1	1
TuebaJS	1048935	SOV	DNA_	3	2	1
TuebaJS	1090207	SOV	AND_	1	2	3
TuebaJS	1427899	SOV	AND_	1	2	3
TuebaJS	1766833	SOV	AND_	1	2	3
TuebaJS	1969841	SOV	AND_	1	2	3
TuebaJS	2585068	SOV	AND_	1	2	3
TuebaJS	2679182	SOV	AND_	1	2	3
TuebaJS	2693496	SOV	AND_	1	2	3
TuebaJS	2766730	SOV	DNA_	3	2	1
TuebaJS	2922192	SOV	DNA_	3	2	1
TuebaJS	2960757	SOV	DNA_	3	2	1
TuebaJS	3538881	SOV	DNA_	3	2	1
TuebaJS	576311	SOV	AND_	1	2	3
TuebaJS	63764	SOV	DNA_	3	2	1
TuebaJS	7807842	SOV	AND_	1	2	3
TuebaJS	8046142	SOV	AND_	1	2	3
TuebaJS	8963487	SOV	AND_	1	2	3
TuebaJS	9034155	SOV	DNA_	3	2	1
TuebaJS	9424567	SOV	AND_	1	2	3
TuebaJS	9665654	SOV	DNA_	3	2	1
Turkish_2.8	3176235	SOV	NDA_	2	3	1
Turkish_2.8	7405965	SOV	ADN_	2	1	3
Turkish_2.8	7524573	OSV	NDA_	2	3	1
Turkish_2.8	9305498	SOV	DAN_	3	1	2
Turkish_2.8	9307005	SOV	DAN_	3	1	2
Turkish_2.8	601747	OSV	AND_	1	2	3
Turkish_2.8	6526527	SOV	AND_	1	2	3
Turkish_2.8	1119026	SOV	ADN_	2	1	3
Turkish_2.8	1138340	SOV	ADN_	2	1	3
Turkish_2.8	1753007	SOV	AND_	1	2	3
Turkish_2.8	1762080	SOV	ADN_	2	1	3
Turkish_2.8	193250	SOV	AND_	1	2	3
Turkish_2.8	2627390	SOV	ADN_	2	1	3
Turkish_2.8	2661717	SOV	ADN_	2	1	3
Turkish_2.8	2799279	SOV	ADN_	2	1	3
Turkish_2.8	3348380	SOV	AD_N	1	1	2
Turkish_2.8	3412174	SOV	ADN_	2	1	3
Turkish_2.8	3472306	SOV	ADN_	2	1	3
Turkish_2.8	3958047	SOV	ADN_	2	1	3
Turkish_2.8	3999473	SOV	ADN_	2	1	3
Turkish_2.8	4506666	SOV	ADN_	2	1	3
Turkish_2.8	451006	SOV	ADN_	2	1	3
Turkish_2.8	4519202	SOV	ADN_	2	1	3
Turkish_2.8	4758581	SOV	ADN_	2	1	3
Turkish_2.8	536957	SOV	ADN_	2	1	3
Turkish_2.8	5760770	SOV	ADN_	2	1	3
Turkish_2.8	5862366	SOV	ADN_	2	1	3
Turkish_2.8	5866937	SOV	ADN_	2	1	3
Turkish_2.8	593044	SOV	ADN_	2	1	3
Turkish_2.8	5991297	SOV	ADN_	2	1	3
Turkish_2.8	636569	SOV	ADN_	2	1	3
Turkish_2.8	6412856	SOV	ADN_	2	1	3
Turkish_2.8	71273	SOV	ADN_	2	1	3
Turkish_2.8	7452745	SOV	ADN_	2	1	3
Turkish_2.8	7460491	SOV	ADN_	2	1	3
Turkish_2.8	7729017	SOV	ADN_	2	1	3
Turkish_2.8	8061152	SOV	ADN_	2	1	3
Turkish_2.8	8440878	SOV	ADN_	2	1	3
Turkish_2.8	8520868	SOV	ADN_	2	1	3
Turkish_2.8	9045040	SOV	ADN_	2	1	3
Turkish_2.8	9435661	SOV	ADN_	2	1	3
Turkish_2.8	9848035	SOV	ADN_	2	1	3
Turkish_2.8	9998279	SOV	AND_	1	2	3
Ukrainian_2.8	2219768	OSV	DNA_	3	2	1
Ukrainian_2.8	2786395	SVO	NA_D	1	2	1
Ukrainian_2.8	4235030	OSV	NA_D	1	2	1
Ukrainian_2.8	4343310	OSV	NA_D	1	2	1
Ukrainian_2.8	454358	OSV	A_ND	2	1	1
Ukrainian_2.8	575860	OSV	NA_D	1	2	1
Ukrainian_2.8	9580359	OSV	A_ND	2	1	1
Ukrainian_2.8	1579528	SVO	NDA_	2	3	1
Ukrainian_2.8	4658996	SOV	NDA_	2	3	1
Ukrainian_2.8	634477	SOV	NDA_	2	3	1
Ukrainian_2.8	7687792	SVO	AN_D	1	1	2
Ukrainian_2.8	1168520	SVO	NDA_	2	3	1
Ukrainian_2.8	7998521	SVO	NDA_	2	3	1
Ukrainian_2.8	16664	SVO	DA_N	2	1	1
Ukrainian_2.8	2061439	SVO	NDA_	2	3	1
Ukrainian_2.8	3426979	SOV	NDA_	2	3	1
Ukrainian_2.8	3861381	SOV	NDA_	2	3	1
Ukrainian_2.8	4073781	SVO	DA_N	2	1	1
Ukrainian_2.8	4592649	SVO	NDA_	2	3	1
Ukrainian_2.8	5432347	SVO	DA_N	2	1	1
Ukrainian_2.8	5913133	SOV	NDA_	2	3	1
Ukrainian_2.8	6934060	SVO	NDA_	2	3	1
Ukrainian_2.8	7093038	SOV	DA_N	2	1	1
Ukrainian_2.8	7303877	SOV	A_ND	2	1	1
Ukrainian_2.8	7955250	SOV	DNA_	3	2	1
Ukrainian_2.8	8873160	SVO	DNA_	3	2	1
Ukrainian_2.8	9355476	SVO	NDA_	2	3	1
Ukrainian_2.8	9678816	SVO	NDA_	2	3	1
Upper_Sorbian_2.8	1351736	SOV	NA_D	1	2	1
Upper_Sorbian_2.8	4006003	OSV	A_ND	2	1	1
Upper_Sorbian_2.8	7171681	SOV	NA_D	1	2	1
Upper_Sorbian_2.8	6670043	OSV	A_DN	1	2	1
Upper_Sorbian_2.8	9291247	OSV	NDA_	2	3	1
Upper_Sorbian_2.8	2263419	OSV	NA_D	1	2	1
Upper_Sorbian_2.8	4703681	SVO	NA_D	1	2	1
Upper_Sorbian_2.8	5274499	OSV	DNA_	3	2	1
Upper_Sorbian_2.8	5704553	OSV	A_DN	1	2	1
Upper_Sorbian_2.8	5848589	SOV	A_DN	1	2	1
Upper_Sorbian_2.8	5925333	SVO	NA_D	1	2	1
Upper_Sorbian_2.8	5926338	OSV	A_DN	1	2	1
Upper_Sorbian_2.8	7360088	SOV	A_DN	1	2	1
Upper_Sorbian_2.8	744702	SOV	NA_D	1	2	1
Upper_Sorbian_2.8	7471486	SVO	DA_N	2	1	1
Upper_Sorbian_2.8	7926102	OSV	A_DN	1	2	1
Upper_Sorbian_2.8	7998731	OSV	A_DN	1	2	1
Upper_Sorbian_2.8	8412590	OSV	DA_N	2	1	1
Urdu_2.8	1503459	SOV	DNA_	3	2	1
Urdu_2.8	2290891	SOV	DNA_	3	2	1
Urdu_2.8	2863978	SOV	NDA_	2	3	1
Urdu_2.8	4132310	SOV	DNA_	3	2	1
Urdu_2.8	7101205	OSV	DNA_	3	2	1
Urdu_2.8	8983095	SOV	DNA_	3	2	1
Urdu_2.8	9619326	SOV	DNA_	3	2	1
Urdu_2.8	2873318	SOV	NDA_	2	3	1
Urdu_2.8	2760351	SOV	NDA_	2	3	1
Urdu_2.8	3230796	SOV	NDA_	2	3	1
Urdu_2.8	1154303	OSV	DA_N	2	1	1
Urdu_2.8	1196827	OSV	NAD_	1	3	2
Urdu_2.8	2730961	SOV	NDA_	2	3	1
Urdu_2.8	4445156	SOV	NDA_	2	3	1
Urdu_2.8	6512830	SOV	NDA_	2	3	1
Urdu_2.8	6706693	SOV	NDA_	2	3	1
Urdu_2.8	7436269	SOV	NAD_	1	3	2
Urdu_2.8	7719192	SOV	NAD_	1	3	2
Urdu_2.8	7798207	SOV	NDA_	2	3	1
Urdu_2.8	9926641	SOV	NDA_	2	3	1
Uyghur_2.8	2555877	SOV	NDA_	2	3	1
Uyghur_2.8	429381	SOV	NDA_	2	3	1
Uyghur_2.8	512913	SVO	A_ND	2	1	1
Uyghur_2.8	7457435	SOV	NDA_	2	3	1
Uyghur_2.8	7218397	SOV	DAN_	3	1	2
Uyghur_2.8	8814949	SOV	NDA_	2	3	1
Uyghur_2.8	50176	SOV	NDA_	2	3	1
Uyghur_2.8	5458174	SOV	NA_D	1	2	1
Uyghur_2.8	6094478	SOV	NDA_	2	3	1
Uyghur_2.8	8550144	SOV	DAN_	3	1	2
Uyghur_2.8	9138449	SOV	A_ND	2	1	1
Uyghur_2.8	2728486	SOV	DA_N	2	1	1
Uyghur_2.8	2948951	SOV	NDA_	2	3	1
Uyghur_2.8	4094303	SOV	A_ND	2	1	1
Uyghur_2.8	4158323	SOV	DNA_	3	2	1
Uyghur_2.8	4469394	SOV	DA_N	2	1	1
Uyghur_2.8	6726054	SOV	DA_N	2	1	1
Uyghur_2.8	7265940	SOV	NDA_	2	3	1
Uyghur_2.8	7874504	SOV	DNA_	3	2	1
Uyghur_2.8	8141165	SOV	NA_D	1	2	1
Uyghur_2.8	8737925	SOV	DNA_	3	2	1
Uyghur_2.8	9342173	SOV	DA_N	2	1	1
Uyghur_2.8	9816331	SOV	DAN_	3	1	2
Vietnamese_2.8	3061709	SOV	A_DN	1	2	1
Vietnamese_2.8	5612469	SOV	A_DN	1	2	1
Vietnamese_2.8	5840406	SOV	DAN_	3	1	2
Vietnamese_2.8	6269680	SOV	A_DN	1	2	1
Vietnamese_2.8	7824953	SOV	AN_D	1	1	2
Vietnamese_2.8	898700	OSV	A_DN	1	2	1
Vietnamese_2.8	8990632	SOV	DAN_	3	1	2
Vietnamese_2.8	9875689	SOV	NDA_	2	3	1
Vietnamese_2.8	6809757	SOV	NA_D	1	2	1
Vietnamese_2.8	2791087	SOV	DAN_	3	1	2
Vietnamese_2.8	5166570	SOV	DAN_	3	1	2
Vietnamese_2.8	6593206	SOV	DAN_	3	1	2
Vietnamese_2.8	4248634	SOV	DNA_	3	2	1
Vietnamese_2.8	7779548	OSV	DNA_	3	2	1
Vietnamese_2.8	2779505	SOV	NA_D	1	2	1
Vietnamese_2.8	3454720	OSV	DNA_	3	2	1
Vietnamese_2.8	415725	OSV	AN_D	1	1	2
Vietnamese_2.8	5248519	SOV	NA_D	1	2	1
Vietnamese_2.8	6451843	SOV	NDA_	2	3	1
Vietnamese_2.8	6516159	SOV	DNA_	3	2	1
Vietnamese_2.8	6786770	SVO	NA_D	1	2	1
Vietnamese_2.8	6799782	OSV	NA_D	1	2	1
Vietnamese_2.8	715391	SOV	NA_D	1	2	1
Vietnamese_2.8	7593461	SOV	ADN_	2	1	3
Vietnamese_2.8	7907932	SOV	NAD_	1	3	2
Vietnamese_2.8	945987	SVO	NAD_	1	3	2
Vietnamese_2.8	9804091	SOV	A_ND	2	1	1
Welsh_2.8	3675791	SOV	A_ND	2	1	1
Welsh_2.8	6899231	SOV	A_ND	2	1	1
Welsh_2.8	9392442	SOV	A_ND	2	1	1
Welsh_2.8	4112739	SOV	DNA_	3	2	1
Welsh_2.8	4491461	SOV	DNA_	3	2	1
Welsh_2.8	4721865	OSV	A_ND	2	1	1
Welsh_2.8	5771732	SOV	DNA_	3	2	1
Welsh_2.8	5889455	SOV	A_ND	2	1	1
Welsh_2.8	6227925	SOV	DNA_	3	2	1
Welsh_2.8	6385489	OSV	A_ND	2	1	1
Welsh_2.8	6502461	OSV	A_ND	2	1	1
Welsh_2.8	7996588	SOV	DNA_	3	2	1
Welsh_2.8	8320908	OSV	A_ND	2	1	1
Welsh_2.8	9325259	SOV	A_ND	2	1	1
Western_Armenian_2.8	1047916	SVO	NA_D	1	2	1
Western_Armenian_2.8	1438400	SOV	NAD_	1	3	2
Western_Armenian_2.8	1768269	OSV	A_DN	1	2	1
Western_Armenian_2.8	2519934	SOV	ADN_	2	1	3
Western_Armenian_2.8	2575481	SVO	A_ND	2	1	1
Western_Armenian_2.8	4760159	SVO	AN_D	1	1	2
Western_Armenian_2.8	5183493	OSV	A_DN	1	2	1
Western_Armenian_2.8	5657377	SOV	AND_	1	2	3
Western_Armenian_2.8	6205254	OSV	DNA_	3	2	1
Western_Armenian_2.8	7498183	SOV	A_ND	2	1	1
Western_Armenian_2.8	7796711	SOV	AD_N	1	1	2
Western_Armenian_2.8	8909143	SVO	A_ND	2	1	1
Western_Armenian_2.8	8978578	SVO	ADN_	2	1	3
Western_Armenian_2.8	8983997	OSV	NA_D	1	2	1
Western_Armenian_2.8	8995084	OSV	NDA_	2	3	1
Wolof_2.8	5110726	SVO	AND_	1	2	3
Wolof_2.8	5255902	SVO	AND_	1	2	3
Wolof_2.8	6200089	SVO	NAD_	1	3	2
Wolof_2.8	6561395	SOV	AND_	1	2	3
Wolof_2.8	6840660	SVO	NAD_	1	3	2
Wolof_2.8	7344028	SVO	A_DN	1	2	1
Wolof_2.8	9148494	SVO	AND_	1	2	3
Wolof_2.8	1963371	SVO	A_DN	1	2	1
Wolof_2.8	3089548	SOV	AD_N	1	1	2
Wolof_2.8	3520883	SVO	A_DN	1	2	1
Wolof_2.8	761311	SVO	A_DN	1	2	1
Wolof_2.8	24907	SVO	A_DN	1	2	1
Wolof_2.8	3091797	SVO	A_DN	1	2	1
Wolof_2.8	8481362	SOV	AD_N	1	1	2
Wolof_2.8	2228102	SVO	A_DN	1	2	1
Wolof_2.8	2470115	SVO	A_DN	1	2	1
Wolof_2.8	271692	SVO	AND_	1	2	3
Wolof_2.8	4132625	SVO	A_DN	1	2	1
Wolof_2.8	5741805	SVO	A_DN	1	2	1
Wolof_2.8	5829927	SVO	NAD_	1	3	2
Wolof_2.8	6047291	SVO	A_DN	1	2	1
Wolof_2.8	6328002	SVO	A_DN	1	2	1
Wolof_2.8	6997923	SVO	A_DN	1	2	1
Wolof_2.8	7085632	SVO	A_DN	1	2	1
Wolof_2.8	9632407	SVO	A_DN	1	2	1
Wolof_2.8	9972248	SVO	A_DN	1	2	1
Xibe_2.9	2352916	SOV	DAN_	3	1	2
Xibe_2.9	2602868	SOV	NAD_	1	3	2
Xibe_2.9	3654796	SOV	DAN_	3	1	2
Xibe_2.9	5263265	SOV	DAN_	3	1	2
Xibe_2.9	5630742	SOV	AD_N	1	1	2
Xibe_2.9	5688216	SOV	AND_	1	2	3
Xibe_2.9	5859154	SOV	NDA_	2	3	1
Xibe_2.9	5864186	SOV	NAD_	1	3	2
Xibe_2.9	6007916	SOV	NAD_	1	3	2
Xibe_2.9	7606948	SOV	AD_N	1	1	2
Xibe_2.9	8023329	SOV	DAN_	3	1	2
Xibe_2.9	8094972	SOV	AD_N	1	1	2
Xibe_2.9	8325856	SOV	AD_N	1	1	2
Xibe_2.9	9980451	SOV	ADN_	2	1	3
