Language	SV_NoO	SV_WithO	VS_NoO	VS_WithO
Arabic_2.8	3286	3056	6560	3515
Catalan_2.8	6126	13330	1419	2878
Czech_2.8	40200	25959	24116	9691
Dutch_2.8	7510	5376	2968	1392
Finnish_2.8	14272	7419	3320	506
French_2.8	24738	19238	1953	470
German_2.8	54675	96818	28146	26538
Hindi_2.8	9847	9451	79	10
Norwegian_2.8	21487	17494	7585	2639
Spanish_2.8	14885	16032	5491	1644
Basque_2.8	3991	1957	873	478
Bulgarian_2.8	3259	2884	1412	345
Croatian_2.8	4072	3822	1652	579
Estonian_2.8	12122	7526	7016	2660
Hebrew_2.8	3318	1234	2028	299
Japanese_2.8	5669	1556	1	0
Polish_2.8	13266	5366	6009	1062
Romanian_2.8	18144	9677	9782	2921
Slovak_2.8	2407	1518	1500	465
Slovenian_2.8	2665	1955	1322	670
Swedish_2.8	6021	5894	1865	889
Afrikaans_2.8	1066	1352	26	37
Chinese_2.8	9175	7720	24	0
Danish_2.8	3100	2890	938	472
Greek_2.8	932	929	358	187
Hungarian_2.8	931	710	385	136
North_Sami_2.8	1369	847	558	51
Persian_2.8	18881	9329	38	15
Serbian_2.8	2599	1774	1084	190
Turkish_2.8	23476	8035	920	403
Ukrainian_2.8	2748	1978	1139	286
Vietnamese_2.8	1544	1347	32	13
Amharic_2.8	461	221	343	241
Armenian_2.8	1290	656	240	53
Breton_2.8	130	53	155	57
Buryat_2.8	418	137	2	1
Cantonese_2.8	486	299	5	1
Faroese_2.8	2118	1002	533	295
Kazakh_2.8	537	188	6	3
Kurmanji_2.8	399	175	2	0
Naija_2.8	6696	5064	221	0
Thai_2.8	744	582	1	0
Uyghur_2.8	2110	787	119	3
Bambara_2.8	1171	575	2	0
Erzya_2.8	641	204	403	50
Maltese_2.8	892	376	467	19
Latvian_2.8	9068	3821	3425	678
Indonesian_2.8	3666	3821	451	5
Urdu_2.8	2979	3014	24	7
Portuguese_2.8	10606	10270	2098	239
English_2.8	16494	14155	1217	32
Italian_2.8	9934	9858	4305	735
Russian_2.8	37492	15767	15763	2220
Korean_2.8	13147	2901	1	0
Ancient_Greek_2.8	9067	6972	4370	2476
Classical_Chinese_2.8	13192	12205	18	0
Gothic_2.8	1384	780	789	243
Icelandic_2.8	39977	19201	19737	7800
Latin_2.8	7628	4953	2514	934
Lithuanian_2.8	1640	620	620	169
Mbya_Guarani_2.8	221	32	39	1
Old_Church_Slavonic_2.8	1610	768	1088	243
Old_French_2.8	6063	5779	1907	834
Old_East_Slavic_2.8	3853	1744	2874	889
Sanskrit_2.8	1262	675	231	87
Scottish_Gaelic_2.8	59	6	4930	868
Welsh_2.8	50	10	1069	64
Wolof_2.8	2550	1738	4	0
Irish_2.8	590	254	4355	1190
Coptic_2.8	2506	1704	355	0
Galician_2.8	2019	3268	743	406
Belarusian_2.8	6718	4227	3217	587
Upper_Sorbian_2.8	227	150	95	27
Akkadian_2.8	250	239	10	2
Manx_2.8	1	0	1798	595
Komi_Zyrian_2.8	365	113	149	17
Kiche_2.8	156	79	261	50
Western_Armenian_2.8	1026	515	144	32
Tamil_2.8	667	284	13	1
