Inference for Stan model: anon_model_2315aae470e0950c2de2f9b4e06c8c6c.
4 chains, each with iter=30000; warmup=15000; thin=1; 
post-warmup draws per chain=15000, total post-warmup draws=60000.

                      mean se_mean     sd    2.5%     25%     50%    75%  97.5%  n_eff   Rhat
TraitHidden[1]      2.1e23  3.7e23 1.5e24 -3.2e24 -1.6e23  3.4e22 3.5e23 4.0e24     16   1.29
TraitHidden[2]       -0.17  5.4e-4   0.15   -0.47   -0.27   -0.17  -0.07   0.13  76885    1.0
TraitHidden[3]       -0.35  5.8e-4   0.16   -0.66   -0.45   -0.35  -0.24  -0.04  74806    1.0
TraitHidden[4]        0.55  1.1e-3   0.32   -0.07    0.35    0.55   0.76   1.19  79266    1.0
TraitHidden[5]       -0.09  7.3e-4   0.22   -0.52   -0.24   -0.09   0.05   0.33  86751    1.0
TraitHidden[6]       -0.89  2.5e-4   0.07   -1.03   -0.93   -0.89  -0.84  -0.74  91025    1.0
TraitHidden[7]       -0.26  6.0e-4   0.14   -0.55   -0.36   -0.26  -0.17   0.02  57705    1.0
TraitHidden[8]       -0.33  5.8e-4   0.14   -0.62   -0.43   -0.33  -0.24  -0.05  61418    1.0
TraitHidden[9]       -0.13  4.6e-4   0.11   -0.35   -0.21   -0.13  -0.06   0.09  58709    1.0
TraitHidden[10]       0.26  1.2e-3   0.33   -0.38    0.05    0.27   0.48   0.92  78919    1.0
TraitHidden[11]       0.14  9.5e-4   0.27   -0.38   -0.03    0.14   0.32   0.67  78508    1.0
TraitHidden[12]      -0.12  5.6e-4   0.14    -0.4   -0.21   -0.12  -0.03   0.15  61599    1.0
TraitHidden[13]      -0.15  6.0e-4   0.16   -0.47   -0.26   -0.15  -0.04   0.17  73470    1.0
TraitHidden[14]      -0.12  3.6e-4   0.09    -0.3   -0.18   -0.12  -0.07   0.05  57561    1.0
TraitHidden[15]      -0.19  8.3e-4   0.25   -0.68   -0.35   -0.19  -0.03   0.29  87939    1.0
TraitHidden[16]      -0.13  9.1e-4   0.26   -0.64    -0.3   -0.13   0.04   0.39  82895    1.0
TraitHidden[17]      -0.14  2.0e-3   0.56   -1.25   -0.52   -0.14   0.23   0.96  82656    1.0
TraitHidden[18]      -0.41  6.4e-4   0.17   -0.74   -0.52   -0.41   -0.3  -0.07  69801    1.0
TraitHidden[19]      -0.04  1.2e-3   0.34    -0.7   -0.26   -0.04   0.18   0.64  83340    1.0
TraitHidden[20]      -0.39  5.8e-4   0.16    -0.7   -0.49   -0.39  -0.29  -0.08  74544    1.0
TraitHidden[21]       0.28  1.0e-3   0.31   -0.34    0.07    0.28   0.49   0.89  88690    1.0
TraitHidden[22]       0.34  1.3e-3   0.36   -0.36     0.1    0.33   0.57   1.05  78095    1.0
TraitHidden[23]    -8.0e-4  1.8e-3   0.44   -0.86   -0.29 -3.2e-4   0.29   0.86  56309    1.0
TraitHidden[24]       0.82  1.1e-3   0.32    0.19    0.61    0.82   1.04   1.47  85085    1.0
TraitHidden[25]      -0.08  6.0e-4   0.16    -0.4   -0.19   -0.08   0.02   0.23  71519    1.0
TraitHidden[26]      -0.07  1.3e-3   0.37    -0.8   -0.31   -0.07   0.17   0.67  86364    1.0
TraitHidden[27]        0.5  3.4e-4    0.1     0.3    0.43     0.5   0.57   0.71  91828    1.0
TraitHidden[28]       0.03  1.3e-3   0.38   -0.72   -0.22    0.03   0.28   0.77  89269    1.0
TraitHidden[29]       0.93  7.5e-4   0.22    0.49    0.78    0.93   1.07   1.37  88604    1.0
TraitHidden[30]      -0.11  1.7e-3   0.41   -0.92   -0.38   -0.11   0.16   0.69  56925    1.0
TraitHidden[31]       0.44  6.7e-4   0.19    0.06    0.31    0.44   0.56   0.83  83979    1.0
TraitHidden[32]      -0.33  2.4e-4   0.07   -0.48   -0.38   -0.33  -0.28  -0.19  90401    1.0
TraitHidden[33]       0.27  5.1e-4   0.14   -0.01    0.17    0.27   0.36   0.55  78555    1.0
TraitHidden[34]      -0.02  1.8e-3   0.43   -0.86    -0.3   -0.02   0.26   0.81  54878    1.0
TraitHidden[35]      -0.12  4.2e-4    0.1   -0.32   -0.19   -0.12  -0.06   0.07  55433    1.0
TraitHidden[36]       0.25  1.8e-3   0.53   -0.79    -0.1    0.25    0.6   1.28  84110    1.0
TraitHidden[37]      -0.14  3.5e-4    0.1   -0.33    -0.2   -0.14  -0.07   0.05  75194    1.0
TraitHidden[38]        0.1  2.1e-3    0.6   -1.06    -0.3     0.1    0.5    1.3  81641    1.0
LogitsHidden[1]     2.1e23  2.9e23 5.9e23 -7.6e23 -1.9e23  5.5e22 6.5e23 1.4e24      4   2.32
LogitsHidden[2]       0.21  8.6e-4   0.23   -0.26    0.06    0.21   0.35   0.64  70081    1.0
LogitsHidden[3]      -0.24  9.2e-4   0.25   -0.74    -0.4   -0.24  -0.08   0.24  72158    1.0
LogitsHidden[4]       0.07  1.3e-3    0.4   -0.71    -0.2    0.07   0.34   0.87  90171    1.0
LogitsHidden[5]       0.13  1.0e-3   0.31   -0.49   -0.07    0.13   0.33   0.73  91212    1.0
LogitsHidden[6]      -0.71  3.8e-4   0.11   -0.93   -0.78    -0.7  -0.63  -0.49  86031    1.0
LogitsHidden[7]      -0.15  1.0e-3   0.23   -0.62   -0.29   -0.14 4.7e-3   0.29  51398    1.0
LogitsHidden[8]      -0.18  1.0e-3   0.23   -0.65   -0.32   -0.17  -0.02   0.27  53877    1.0
LogitsHidden[9]       0.12  7.5e-4   0.17   -0.23  8.1e-3    0.12   0.23   0.46  53630    1.0
LogitsHidden[10]      0.14  1.4e-3   0.41   -0.66   -0.13    0.14   0.41   0.94  81661    1.0
LogitsHidden[11]      0.25  1.4e-3   0.37    -0.5  9.4e-4    0.25   0.49   0.97  71714    1.0
LogitsHidden[12]     -0.06  9.3e-4   0.22    -0.5   -0.19   -0.05   0.09   0.37  54609    1.0
LogitsHidden[13]     -0.13  8.8e-4   0.24    -0.6   -0.29   -0.14   0.02   0.35  74329    1.0
LogitsHidden[14]      0.16  5.7e-4   0.13   -0.11    0.07    0.16   0.24   0.42  54379    1.0
LogitsHidden[15]       0.1  1.1e-3   0.34   -0.58   -0.12    0.11   0.33   0.76  91383    1.0
LogitsHidden[16]     -0.29  1.2e-3   0.36   -0.99   -0.53    -0.3  -0.06   0.42  85020    1.0
LogitsHidden[17]     -0.05  1.5e-3   0.46   -0.96   -0.36   -0.05   0.25   0.85  94550    1.0
LogitsHidden[18]     -0.39 10.0e-4   0.26    -0.9   -0.55   -0.38  -0.22   0.13  67323    1.0
LogitsHidden[19]      -0.1  1.4e-3   0.41   -0.92   -0.38    -0.1   0.17   0.71  92045    1.0
LogitsHidden[20]     -0.42  9.0e-4   0.24   -0.89   -0.57   -0.42  -0.26   0.07  71980    1.0
LogitsHidden[21]     -0.14  1.3e-3    0.4   -0.91    -0.4   -0.14   0.13   0.65  88173    1.0
LogitsHidden[22]   -1.3e-3  1.5e-3   0.44   -0.87   -0.29 -3.1e-3   0.29   0.86  88594    1.0
LogitsHidden[23]      0.04  1.8e-3   0.45   -0.84   -0.26    0.03   0.33   0.92  62921    1.0
LogitsHidden[24]      0.19  1.3e-3   0.41   -0.61   -0.08    0.19   0.46    1.0  92602    1.0
LogitsHidden[25]      0.04  9.4e-4   0.24   -0.45   -0.11    0.04    0.2   0.51  67084    1.0
LogitsHidden[26]     -0.08  1.4e-3   0.44   -0.93   -0.37   -0.08   0.21   0.77  93471    1.0
LogitsHidden[27]      0.06  5.2e-4   0.16   -0.24   -0.04    0.06   0.16   0.37  89272    1.0
LogitsHidden[28]     -0.17  1.5e-3   0.43   -1.01   -0.46   -0.17   0.12   0.67  82230    1.0
LogitsHidden[29]      0.49  1.1e-3   0.33   -0.16    0.28     0.5   0.71   1.13  85978    1.0
LogitsHidden[30]   -8.1e-3  1.7e-3   0.44   -0.87    -0.3 -9.3e-3   0.29   0.86  67876    1.0
LogitsHidden[31]      0.12  9.9e-4    0.3   -0.46   -0.07    0.12   0.32   0.71  90103    1.0
LogitsHidden[32]       0.1  3.8e-4   0.11   -0.12    0.03     0.1   0.17   0.32  84149    1.0
LogitsHidden[33]     -0.53  8.0e-4   0.22   -0.95   -0.67   -0.54  -0.39  -0.08  74108    1.0
LogitsHidden[34]      0.02  1.8e-3   0.45   -0.86   -0.28    0.02   0.32    0.9  61458    1.0
LogitsHidden[35]      0.14  6.8e-4   0.15   -0.17    0.04    0.14   0.23   0.44  51426    1.0
LogitsHidden[36]      0.02  1.5e-3   0.45   -0.88   -0.28    0.02   0.32   0.91  90763    1.0
LogitsHidden[37]      0.04  5.4e-4   0.15   -0.25   -0.06    0.04   0.13   0.33  72471    1.0
LogitsHidden[38]     -0.03  1.5e-3   0.46   -0.95   -0.34   -0.03   0.28   0.88  93997    1.0
alpha[1,1]           -0.03  2.4e-4   0.07   -0.17   -0.08   -0.03 9.9e-3    0.1  79136    1.0
alpha[1,2]           -0.06  4.6e-4   0.13   -0.32   -0.14   -0.05   0.03   0.19  74936    1.0
sigma_B[1,1]          0.76  1.2e-3   0.17    0.51    0.65    0.74   0.84   1.15  18185    1.0
sigma_B[1,2]          0.38  4.3e-4   0.08    0.25    0.33    0.38   0.43   0.55  31668    1.0
Lrescor_Sigma[1,1]     1.0     nan    0.0     1.0     1.0     1.0    1.0    1.0    nan    nan
Lrescor_Sigma[2,1]    0.42  5.1e-4    0.1    0.21    0.36    0.43    0.5   0.61  41745    1.0
Lrescor_Sigma[1,2]     0.0     nan    0.0     0.0     0.0     0.0    0.0    0.0    nan    nan
Lrescor_Sigma[2,2]     0.9  2.4e-4   0.05    0.79    0.87     0.9   0.93   0.98  41305    1.0
sigma_Sigma[1]        0.48  7.6e-4   0.09    0.35    0.42    0.47   0.53   0.71  15688    1.0
sigma_Sigma[2]        0.33  2.8e-4   0.05    0.26     0.3    0.33   0.36   0.43  25425    1.0
Lrescor_B[1,1]         1.0     nan    0.0     1.0     1.0     1.0    1.0    1.0    nan    nan
Lrescor_B[2,1]         0.0     nan    0.0     0.0     0.0     0.0    0.0    0.0    nan    nan
Lrescor_B[1,2]         0.0     nan    0.0     0.0     0.0     0.0    0.0    0.0    nan    nan
Lrescor_B[2,2]         1.0     nan    0.0     1.0     1.0     1.0    1.0    1.0    nan    nan
Sigma_chol[1,1]       0.48  7.6e-4   0.09    0.35    0.42    0.47   0.53   0.71  15688    1.0
Sigma_chol[2,1]       0.14  2.5e-4   0.04    0.06    0.11    0.14   0.17   0.24  33532    1.0
Sigma_chol[1,2]        0.0     nan    0.0     0.0     0.0     0.0    0.0    0.0    nan    nan
Sigma_chol[2,2]        0.3  2.3e-4   0.04    0.23    0.27    0.29   0.32   0.38  27160    1.0
Sigma[1,1]            0.24  9.0e-4   0.11    0.12    0.18    0.22   0.28   0.51  14360    1.0
Sigma[2,1]            0.07  2.0e-4   0.03    0.03    0.05    0.07   0.08   0.14  22077    1.0
Sigma[1,2]            0.07  2.0e-4   0.03    0.03    0.05    0.07   0.08   0.14  22077    1.0
Sigma[2,2]            0.11  2.0e-4   0.03    0.07    0.09    0.11   0.13   0.19  25286    1.0
B[1,1,1]              0.61  2.3e-3   0.29    0.26    0.42    0.54   0.71   1.33  16127    1.0
B[1,2,1]               0.0     nan    0.0     0.0     0.0     0.0    0.0    0.0    nan    nan
B[1,1,2]               0.0     nan    0.0     0.0     0.0     0.0    0.0    0.0    nan    nan
B[1,2,2]              0.15  3.5e-4   0.06    0.06    0.11    0.14   0.19    0.3  31056    1.0
Omega[1,1,1]          0.21  1.8e-4   0.04    0.15    0.18     0.2   0.23   0.31  52341    1.0
Omega[1,2,1]           0.1  1.5e-4   0.03    0.04    0.07    0.09   0.11   0.17  44062    1.0
Omega[1,1,2]           0.1  1.5e-4   0.03    0.04    0.07    0.09   0.11   0.17  44062    1.0
Omega[1,2,2]          0.39  4.8e-4   0.11    0.24    0.32    0.37   0.44   0.66  51925    1.0
lp__                -81.02    0.09   9.46  -101.4  -86.98  -80.43 -74.41 -64.16  11810    1.0

Samples were drawn using NUTS at Tue Nov  2 09:15:55 2021.
For each parameter, n_eff is a crude measure of effective sample size,
and Rhat is the potential scale reduction factor on split chains (at 
convergence, Rhat=1).
