Language	Family
Afrikaans_2.8	Global_Dutch	West_Germanic	Germanic	Indo_European
Amharic_2.8	West_Semitic	Semitic
Arabic_2.8	Arabic	Central_Semitic	West_Semitic	Semitic
Armenian_2.8	Armenian	Indo_European
Bambara_2.8	Niger_Congo
Basque_2.8	_ROOT_
Breton_2.8	Brythonic	Insular_Celtic	Indo_European
Bulgarian_2.8	Old_Church_Slavonic_2.8	South_Slavic	Slavic	Balto_Slavic	Indo_European
Buryat_2.8	_ROOT_
Cantonese_2.8	Classical_Chinese_2.8
Catalan_2.8	Iberian_Romance	Western_Romance	Italo_Western_Romance	Latin_2.8	Indo_European
Chinese_2.8	Classical_Chinese_2.8
Classical_Chinese_2.8	_ROOT_
Coptic_2.8	Afroasiatic
Croatian_2.8	Serbo_Croatian	Western_South_Slavic	South_Slavic	Slavic	Balto_Slavic	Indo_European
Czech_2.8	West_Slavic	Slavic	Balto_Slavic	Indo_European
Danish_2.8	North_Germanic	Germanic	Indo_European
Dutch_2.8	Global_Dutch	West_Germanic	Germanic	Indo_European
English_2.8	Macro_English	ISWOC_Old_English	West_Germanic	Germanic	Indo_European
ISWOC_Old_English	West_Germanic	Germanic	Indo_European
Erzya_2.8	Uralic
Estonian_2.8	Finnic	Uralic
PARTITION-Icelandic_early	West_Scandinavian	North_Germanic	Germanic	Indo_European
Faroese_2.8	PARTITION-Icelandic_early	West_Scandinavian	North_Germanic	Germanic	Indo_European
Finnish_2.8	Finnic	Uralic
French_2.8	Old_French_2.8
German_2.8	West_Germanic	Germanic	Indo_European
Gothic_2.8	Germanic	Indo_European
PARTITION-Ancient_Greek_archaic	Indo_European
PARTITION-Ancient_Greek_classical	PARTITION-Ancient_Greek_archaic	Indo_European
PARTITION-Ancient_Greek_koine	PARTITION-Ancient_Greek_classical	PARTITION-Ancient_Greek_archaic	Indo_European
Greek_2.8	PARTITION-Ancient_Greek_koine	PARTITION-Ancient_Greek_classical	PARTITION-Ancient_Greek_archaic	Indo_European
Hebrew_2.8	Central_Semitic	West_Semitic	Semitic
Hindi_2.8	Hindustani	Sanskrit_2.8	Indo_Iranian	Indo_European
Hungarian_2.8	Uralic
PARTITION-Icelandic_middle	PARTITION-Icelandic_early	West_Scandinavian	North_Germanic	Germanic	Indo_European
PARTITION-Icelandic_modern	PARTITION-Icelandic_middle	PARTITION-Icelandic_early	West_Scandinavian	North_Germanic	Germanic	Indo_European
Indonesian_2.8	_ROOT_
Irish_2.8	Goidelic	Insular_Celtic	Indo_European
Italian_2.8	Italo_Western_Romance	Latin_2.8	Indo_European
Japanese_2.8	_ROOT_
Kazakh_2.8	Common_Turkic
Korean_2.8	_ROOT_
Kurmanji_2.8	Iranian	Indo_Iranian	Indo_European
Latin_2.8	Indo_European
Latvian_2.8	Eastern_Baltic	Balto_Slavic	Indo_European
Lithuanian_2.8	Eastern_Baltic	Balto_Slavic	Indo_European
Maltese_2.8	Arabic	Central_Semitic	West_Semitic	Semitic	Afroasiatic
Mbya_Guarani_2.8	_ROOT_
Naija_2.8	Macro_English
North_Sami_2.8	Uralic
Norwegian_2.8	West_Scandinavian	North_Germanic	Germanic	Indo_European
Old_Church_Slavonic_2.8	South_Slavic	Slavic	Balto_Slavic	Indo_European
Old_French_2.8	Western_Romance	Italo_Western_Romance	Latin_2.8	Indo_European
Old_East_Slavic_2.8	Slavic	Balto_Slavic	Indo_European
Persian_2.8	Iranian	Indo_Iranian	Indo_European
Polish_2.8	West_Slavic	Slavic	Balto_Slavic	Indo_European
Portuguese_2.8	ISWOC_Portuguese	West_Iberian	Iberian_Romance	Western_Romance	Italo_Western_Romance	Latin_2.8	Indo_European
ISWOC_Portuguese	West_Iberian
Romanian_2.8	Latin_2.8	Indo_European
Russian_2.8	Old_East_Slavic_2.8	Slavic	Balto_Slavic	Indo_European
Sanskrit_2.8	Indo_Iranian	Indo_European
Scottish_Gaelic_2.8	Goidelic	Insular_Celtic
Serbian_2.8	Serbo_Croatian	Western_South_Slavic	South_Slavic	Slavic	Balto_Slavic	Indo_European
Sindhi_2.8	Sanskrit_2.8	Indo_Iranian	Indo_European
Slovak_2.8	West_Slavic	Slavic	Balto_Slavic	Indo_European
Slovenian_2.8	Western_South_Slavic	South_Slavic	Slavic	Balto_Slavic	Indo_European
Spanish_2.8	ISWOC_Spanish	West_Iberian	Iberian_Romance	Western_Romance	Italo_Western_Romance	Latin_2.8	Indo_European
ISWOC_Spanish	West_Iberian
Swedish_2.8	North_Germanic	Germanic	Indo_European
Thai_2.8	_ROOT_
Turkish_2.8	Common_Turkic
Ukrainian_2.8	Old_East_Slavic_2.8	Slavic	Balto_Slavic	Indo_European
Urdu_2.8	Hindustani	Sanskrit_2.8	Indo_Iranian	Indo_European
Uyghur_2.8	Common_Turkic
Vietnamese_2.8	_ROOT_
Welsh_2.8	Brythonic	Insular_Celtic	Indo_European
Wolof_2.8	Niger_Congo
Yoruba_2.8	Defoid	Niger_Congo
Galician_2.8	West_Iberian	Iberian_Romance	Western_Romance	Italo_Western_Romance	Latin_2.8	Indo_European
Belarusian_2.8	Old_East_Slavic_2.8	Slavic	Balto_Slavic	Indo_European
Upper_Sorbian_2.8	West_Slavic	Slavic	Balto_Slavic	Indo_European
Akkadian_2.8	Semitic	Afroasiatic
Kiche_2.8	_ROOT_
Komi_Zyrian_2.8	Permic	Uralic
Manx_2.8	Goidelic	Insular_Celtic	Indo_European
Western_Armenian_2.8	Armenian	Indo_European
Tamil_2.8	_ROOT_
Xibe_2.9	_ROOT_
